Date,Time,TaoC,RH,WindMS,PrecipMM,PARuE,Jul,SolarRadWM2,NetRadWM2,ET,CIMISNetRadWM2,PMEToMM
6/1/2010,100,26.9,75,2.7,0,0,154,0,-41,0,-40,0.02
6/1/2010,200,27,75,3.2,0,0,154,0,-41,0,-40,0.02
6/1/2010,300,26.6,77,4.2,0,0,154,0,-41,0,-40,0.03
6/1/2010,400,26,80,3.8,0,0,154,0,-40,0,-40,0.02
6/1/2010,500,25.7,81,2.4,0,11.5,154,5,-36,0,-36,0.01
6/1/2010,600,26.1,80,1.5,0,163.3,154,71,14,0,6,0.03
6/1/2010,700,27.9,75,1.9,0,591.1,154,257,147,0,146,0.15
6/1/2010,800,30.2,67,1.7,0,991.3,154,431,275,0,254,0.27
6/1/2010,900,32,60,1.9,0,1366.2,154,594,397,0,363,0.39
6/1/2010,1000,33.7,54,1.7,0,1713.5,154,745,508,0,467,0.51
6/1/2010,1100,34.9,50,1.8,0,1941.2,154,844,582,0,536,0.59
6/1/2010,1200,35.9,47,2.6,0,1858.4,154,808,562,0,515,0.61
6/1/2010,1300,36.6,44,4.2,0,1936.6,154,842,584,0,538,0.67
6/1/2010,1400,37.7,40,4.7,0,1794,154,780,537,0,494,0.67
6/1/2010,1500,37.8,36,5.4,0,1541,154,670,453,0,417,0.64
6/1/2010,1600,37,37,5.7,0,897,154,390,266,0,226,0.49
6/1/2010,1700,35,38,6.5,0,363.4,154,158,117,0,77,0.38
6/1/2010,1800,33.4,40,6.6,0,133.4,154,58,-5,0,28,0.27
6/1/2010,1900,32.6,46,3.4,0,73.6,154,32,-23,0,5,0.13
6/1/2010,2000,31.5,51,4.2,0,4.6,154,2,-44,0,-17,0.08
6/1/2010,2100,30.7,59,3.1,0,0,154,0,-43,0,-18,0.05
6/1/2010,2200,29.2,67,2.2,0,0,154,0,-42,0,-17,0.03
6/1/2010,2300,28.9,69,2.8,0,0,154,0,-41,0,-17,0.03
6/1/2010,2400,28.6,71,2.6,0,0,154,0,-41,0,-17,0.03
6/2/2010,100,23.1,77,1.3,0,0,153,0,-58,0,-42,0
6/2/2010,200,22.7,80,1.5,0,0,153,0,-57,0,-42,0
6/2/2010,300,22.5,81,1.7,0,0,153,0,-57,0,-42,0
6/2/2010,400,22.3,82,1.5,0,0,153,0,-57,0,-42,0
6/2/2010,500,22,83,1.2,0,9.2,153,4,-54,0,-39,0
6/2/2010,600,22.6,82,1.8,0,193.2,153,84,8,0,13,0.04
6/2/2010,700,25.7,73,1.7,0,602.6,153,262,146,0,148,0.14
6/2/2010,800,28.4,65,2.2,0,644,153,280,186,0,161,0.2
6/2/2010,900,30.1,59,2.6,0,1014.3,153,441,299,0,263,0.31
6/2/2010,1000,33.3,50,2.5,0,1727.3,153,751,508,0,469,0.52
6/2/2010,1100,35.2,46,3.4,0,1748,153,760,524,0,481,0.58
6/2/2010,1200,36,44,4,0,1810.1,153,787,546,0,500,0.62
6/2/2010,1300,37.5,42,4.6,0,2065.4,153,898,620,0,573,0.72
6/2/2010,1400,37.2,42,3.1,0,924.6,153,402,290,0,204,0.41
6/2/2010,1500,38.4,41,5.7,0,2099.9,153,913,626,0,558,0.77
6/2/2010,1600,37.1,40,4.8,0,1087.9,153,473,318,0,283,0.49
6/2/2010,1700,35.6,43,3.8,0,485.3,153,211,147,0,114,0.3
6/2/2010,1800,34.2,50,2.9,0,179.4,153,78,16,0,43,0.14
6/2/2010,1900,33,53,3.5,0,82.8,153,36,-16,0,9,0.12
6/2/2010,2000,31.5,58,4.1,0,4.6,153,2,-41,0,-16,0.07
6/2/2010,2100,29.9,64,5.5,0,0,153,0,-42,0,-17,0.06
6/2/2010,2200,29,67,4.1,0,0,153,0,-42,0,-17,0.05
6/2/2010,2300,27.7,70,3.9,0,0,153,0,-42,0,-17,0.04
6/2/2010,2400,27,74,3.3,0,0,153,0,-41,0,-17,0.03
6/3/2010,100,26.9,75,2.7,0,0,154,0,-41,0,-40,0.02
6/3/2010,200,27,75,3.2,0,0,154,0,-41,0,-40,0.02
6/3/2010,300,26.6,77,4.2,0,0,154,0,-41,0,-40,0.03
6/3/2010,400,26,80,3.8,0,0,154,0,-40,0,-40,0.02
6/3/2010,500,25.7,81,2.4,0,11.5,154,5,-36,0,-36,0.01
6/3/2010,600,26.1,80,1.5,0,163.3,154,71,14,0,6,0.03
6/3/2010,700,27.9,75,1.9,0,591.1,154,257,147,0,146,0.15
6/3/2010,800,30.2,67,1.7,0,991.3,154,431,275,0,254,0.27
6/3/2010,900,32,60,1.9,0,1366.2,154,594,397,0,363,0.39
6/3/2010,1000,33.7,54,1.7,0,1713.5,154,745,508,0,467,0.51
6/3/2010,1100,34.9,50,1.8,0,1941.2,154,844,582,0,536,0.59
6/3/2010,1200,35.9,47,2.6,0,1858.4,154,808,562,0,515,0.61
6/3/2010,1300,36.6,44,4.2,0,1936.6,154,842,584,0,538,0.67
6/3/2010,1400,37.7,40,4.7,0,1794,154,780,537,0,494,0.67
6/3/2010,1500,37.8,36,5.4,0,1541,154,670,453,0,417,0.64
6/3/2010,1600,37,37,5.7,0,897,154,390,266,0,226,0.49
6/3/2010,1700,35,38,6.5,0,363.4,154,158,117,0,77,0.38
6/3/2010,1800,33.4,40,6.6,0,133.4,154,58,-5,0,28,0.27
6/3/2010,1900,32.6,46,3.4,0,73.6,154,32,-23,0,5,0.13
6/3/2010,2000,31.5,51,4.2,0,4.6,154,2,-44,0,-17,0.08
6/3/2010,2100,30.7,59,3.1,0,0,154,0,-43,0,-18,0.05
6/3/2010,2200,29.2,67,2.2,0,0,154,0,-42,0,-17,0.03
6/3/2010,2300,28.9,69,2.8,0,0,154,0,-41,0,-17,0.03
6/3/2010,2400,28.6,71,2.6,0,0,154,0,-41,0,-17,0.03
6/4/2010,100,28.2,72,3.6,0,0,155,0,-41,0,-17,0.03
6/4/2010,200,27.6,77,4.1,0,0,155,0,-40,0,-17,0.03
6/4/2010,300,27.4,79,3.9,0,0,155,0,-40,0,-17,0.02
6/4/2010,400,26.9,81,5.1,0,0,155,0,-39,0,-17,0.02
6/4/2010,500,26.7,83,4.6,0,2.3,155,1,-38,0,-16,0.02
6/4/2010,600,27.1,81,5,0,55.2,155,24,-21,0,1,0.04
6/4/2010,700,27.3,81,4.5,0,140.3,155,61,8,0,35,0.06
6/4/2010,800,28,80,4.5,0,335.8,155,146,109,0,72,0.13
6/4/2010,900,29.2,74,4.6,0,657.8,155,286,205,0,151,0.21
6/4/2010,1000,29.7,72,4.6,0,736,155,320,234,0,159,0.24
6/4/2010,1100,31.2,67,5.4,0,1662.9,155,723,507,0,458,0.46
6/4/2010,1200,32.6,60,4.7,0,1745.7,155,759,533,0,482,0.52
6/4/2010,1300,33.9,55,4.8,0,1352.4,155,588,418,0,356,0.47
6/4/2010,1400,34.4,55,5.4,0,1214.4,155,528,376,0,315,0.45
6/4/2010,1500,34.7,56,4.7,0,961.4,155,418,298,0,240,0.39
6/4/2010,1600,34.5,57,3.6,0,604.9,155,263,191,0,132,0.28
6/4/2010,1700,34,58,3.3,0,411.7,155,179,130,0,92,0.22
6/4/2010,1800,33.7,58,4.2,0,365.7,155,159,104,0,97,0.22
6/4/2010,1900,33.5,60,2.5,0,225.4,155,98,57,0,41,0.11
6/4/2010,2000,31.8,63,2.9,0,6.9,155,3,-16,0,-21,0.05
6/4/2010,2100,30.8,66,2.7,0,0,155,0,-18,0,-23,0.04
6/4/2010,2200,29.5,71,1.6,0,0,155,0,-18,0,-23,0.02
6/4/2010,2300,28.3,78,1.7,0,0,155,0,-18,0,-23,0.01
6/4/2010,2400,27,83,1.3,0,0,155,0,-18,0,-22,0
6/5/2010,100,26.5,84,1.4,0,0,156,0,-18,0,-39,0
6/5/2010,200,25.6,87,1.3,0,0,156,0,-18,0,-39,0
6/5/2010,300,25,88,1,0,0,156,0,-18,0,-39,0
6/5/2010,400,24.8,89,1.3,0,0,156,0,-18,0,-39,0
6/5/2010,500,24.1,90,0.6,0,6.9,156,3,-16,0,-36,0
6/5/2010,600,25.2,88,1.3,0,223.1,156,97,57,0,24,0.04
6/5/2010,700,28.1,79,1,0,593.4,156,258,149,0,147,0.14
6/5/2010,800,30.5,71,1.2,0,1002.8,156,436,281,0,258,0.26
6/5/2010,900,32.8,64,1.3,0,1391.5,156,605,407,0,371,0.4
6/5/2010,1000,34.2,60,2,0,1704.3,156,741,510,0,466,0.51
6/5/2010,1100,35.8,52,1.8,0,1945.8,156,846,586,0,539,0.6
6/5/2010,1200,37.3,45,1.8,0,2086.1,156,907,628,0,579,0.67
6/5/2010,1300,38.7,34,2.5,0,2083.8,156,906,619,0,576,0.72
6/5/2010,1400,40.1,28,2.4,0,1975.7,156,859,578,0,541,0.71
6/5/2010,1500,40.9,29,3.3,0,1745.7,156,759,505,0,472,0.69
6/5/2010,1600,41.5,26,4.1,0,1430.6,156,622,400,0,376,0.64
6/5/2010,1700,41.1,29,4.2,0,922.3,156,401,250,0,235,0.5
6/5/2010,1800,40,30,4.7,0,545.1,156,237,133,0,134,0.41
6/5/2010,1900,37.9,33,4.8,0,163.3,156,71,6,0,14,0.28
6/5/2010,2000,36,39,4.1,0,9.2,156,4,-43,0,-33,0.12
6/5/2010,2100,34.4,46,3.3,0,0,156,0,-44,0,-35,0.09
6/5/2010,2200,32.3,54,2.4,0,0,156,0,-42,0,-34,0.05
6/5/2010,2300,29.6,62,3.4,0,0,156,0,-41,0,-33,0.05
6/5/2010,2400,28.3,68,2.5,0,0,156,0,-40,0,-33,0.03
6/6/2010,100,27.5,72,1.8,0,0,157,0,-40,0,-41,0.02
6/6/2010,200,27,74,1.4,0,0,157,0,-39,0,-41,0.01
6/6/2010,300,26.6,77,1.9,0,0,157,0,-39,0,-40,0.01
6/6/2010,400,26,81,1.4,0,0,157,0,-38,0,-40,0
6/6/2010,500,25.3,84,1.5,0,6.9,157,3,-36,0,-37,0
6/6/2010,600,25.7,84,1.9,0,218.5,157,95,35,0,22,0.05
6/6/2010,700,28.5,75,2.1,0,598,157,260,149,0,148,0.15
6/6/2010,800,31.7,65,1.8,0,1044.2,157,454,290,0,267,0.29
6/6/2010,900,34,58,1.9,0,1403,157,610,408,0,373,0.42
6/6/2010,1000,35.8,52,2.2,0,1748,157,760,519,0,476,0.55
6/6/2010,1100,37.7,46,2.2,0,1922.8,157,836,577,0,532,0.63
6/6/2010,1200,39,41,2.2,0,2129.8,157,926,639,0,588,0.72
6/6/2010,1300,40.5,35,2.4,0,2053.9,157,893,614,0,569,0.73
6/6/2010,1400,41.3,32,4,0,1867.6,157,812,554,0,515,0.75
6/6/2010,1500,41.3,32,4,0,1715.8,157,746,501,0,466,0.7
6/6/2010,1600,41.3,30,3.6,0,1446.7,157,629,409,0,382,0.61
6/6/2010,1700,41.1,28,4.6,0,1062.6,157,462,282,0,269,0.55
6/6/2010,1800,39.7,29,4.4,0,650.9,157,283,152,0,157,0.42
6/6/2010,1900,37.3,35,3.6,0,253,157,110,22,0,27,0.24
6/6/2010,2000,33.2,50,3.4,0,6.9,157,3,-54,0,-40,0.08
6/6/2010,2100,30.2,62,2.6,0,0,157,0,-53,0,-41,0.04
6/6/2010,2200,28.3,70,2.6,0,0,157,0,-52,0,-40,0.03
6/6/2010,2300,26.9,75,2.5,0,0,157,0,-51,0,-40,0.02
6/6/2010,2400,25.6,80,1.7,0,0,157,0,-51,0,-39,0.01
6/7/2010,100,24.9,82,1.4,0,0,158,0,-51,0,-38,0
6/7/2010,200,24.6,82,1.3,0,0,158,0,-51,0,-38,0
6/7/2010,300,24.5,81,1.4,0,0,158,0,-51,0,-38,0
6/7/2010,400,23.8,83,0.9,0,0,158,0,-51,0,-38,0
6/7/2010,500,23.6,85,1.5,0,11.5,158,5,-47,0,-34,0
6/7/2010,600,24.7,81,1.9,0,227.7,158,99,25,0,26,0.05
6/7/2010,700,26.8,77,2.1,0,579.6,158,252,144,0,144,0.14
6/7/2010,800,28.3,73,3.3,0,993.6,158,432,277,0,255,0.25
6/7/2010,900,29.8,67,3.8,0,1391.5,158,605,405,0,371,0.37
6/7/2010,1000,31.6,63,3.4,0,1743.4,158,758,519,0,476,0.48
6/7/2010,1100,33.3,56,3.2,0,1987.2,158,864,597,0,549,0.58
6/7/2010,1200,35,50,3,0,2118.3,158,921,639,0,587,0.65
6/7/2010,1300,36.2,46,2.4,0,2134.4,158,928,642,0,591,0.68
6/7/2010,1400,37.5,40,2.1,0,2012.5,158,875,599,0,554,0.66
6/7/2010,1500,38.6,35,1.9,0,1702,158,740,498,0,463,0.58
6/7/2010,1600,39.2,33,2.2,0,1423.7,158,619,404,0,377,0.52
6/7/2010,1700,38.8,39,3.6,0,1053.4,158,458,289,0,270,0.45
6/7/2010,1800,37.8,42,4,0,639.4,158,278,159,0,158,0.34
6/7/2010,1900,35.3,47,3.6,0,213.9,158,93,17,0,20,0.18
6/7/2010,2000,31.9,54,3.3,0,6.9,158,3,-51,0,-38,0.07
6/7/2010,2100,29.5,60,3,0,0,158,0,-53,0,-40,0.05
6/7/2010,2200,28.5,61,2.3,0,0,158,0,-53,0,-40,0.03
6/7/2010,2300,27.5,65,2.3,0,0,158,0,-52,0,-40,0.03
6/7/2010,2400,26.2,70,2.5,0,0,158,0,-52,0,-39,0.02
6/8/2010,100,25.3,73,1.7,0,0,159,0,-51,0,-37,0.01
6/8/2010,200,24.4,77,2,0,0,159,0,-51,0,-36,0.01
6/8/2010,300,23.6,80,1.8,0,0,159,0,-51,0,-36,0.01
6/8/2010,400,23.1,83,1.7,0,0,159,0,-50,0,-36,0
6/8/2010,500,23,84,1.3,0,11.5,159,5,-46,0,-32,0
6/8/2010,600,23.7,81,1.5,0,193.2,159,84,14,0,19,0.04
6/8/2010,700,25.6,75,1.4,0,545.1,159,237,136,0,137,0.13
6/8/2010,800,28.1,68,1.3,0,956.8,159,416,265,0,246,0.24
6/8/2010,900,30,63,2.2,0,1377.7,159,599,399,0,367,0.37
6/8/2010,1000,31.5,58,2.6,0,1706.6,159,742,506,0,466,0.48
6/8/2010,1100,33.4,51,2.8,0,1904.4,159,828,570,0,527,0.57
6/8/2010,1200,35,48,3.1,0,2040.1,159,887,614,0,567,0.64
6/8/2010,1300,36.8,43,4.1,0,2010.2,159,874,605,0,559,0.69
6/8/2010,1400,38,38,3.9,0,1909,159,830,568,0,527,0.69
6/8/2010,1500,38.9,36,4.8,0,1681.3,159,731,493,0,458,0.67
6/8/2010,1600,38.7,32,5.3,0,1384.6,159,602,392,0,367,0.62
6/8/2010,1700,37.5,33,4.9,0,936.1,159,407,254,0,239,0.48
6/8/2010,1800,37.8,28,4.7,0,506,159,220,124,0,125,0.39
6/8/2010,1900,33.9,37,3.6,0,156.4,159,68,10,0,16,0.19
6/8/2010,2000,30,46,4.5,0,9.2,159,4,-37,0,-30,0.09
6/8/2010,2100,27,54,3.5,0,0,159,0,-39,0,-32,0.05
6/8/2010,2200,26.8,53,3.8,0,0,159,0,-39,0,-33,0.06
6/8/2010,2300,25.4,62,2.8,0,0,159,0,-38,0,-32,0.03
6/8/2010,2400,25,63,2.2,0,0,159,0,-38,0,-32,0.03
6/9/2010,100,25.5,64,1.8,0,0,160,0,-37,0,-38,0.02
6/9/2010,200,26.3,60,2.6,0,0,160,0,-38,0,-38,0.03
6/9/2010,300,26.6,58,3.5,0,0,160,0,-38,0,-39,0.05
6/9/2010,400,25.7,63,4.4,0,0,160,0,-37,0,-38,0.05
6/9/2010,500,26,66,3.6,0,6.9,160,3,-34,0,-35,0.04
6/9/2010,600,25.9,70,3,0,110.4,160,48,1,0,-1,0.04
6/9/2010,700,27.6,67,3.4,0,545.1,160,237,135,0,136,0.17
6/9/2010,800,30,62,4.5,0,1191.4,160,518,327,0,276,0.34
6/9/2010,900,31.3,58,4.5,0,1283.4,160,558,372,0,341,0.39
6/9/2010,1000,31.4,57,3.9,0,1265,160,550,381,0,336,0.4
6/9/2010,1100,31.6,57,4,0,1196,160,520,369,0,310,0.4
6/9/2010,1200,32.7,51,4.4,0,1681.3,160,731,511,0,461,0.53
6/9/2010,1300,33.4,46,4.3,0,1805.5,160,785,545,0,498,0.58
6/9/2010,1400,34.7,30,4.6,0,1957.3,160,851,572,0,536,0.69
6/9/2010,1500,34.9,28,4.6,0,1771,160,770,507,0,477,0.65
6/9/2010,1600,34.8,33,5,0,1488.1,160,647,418,0,392,0.57
6/9/2010,1700,34,35,5.9,0,1097.1,160,477,292,0,278,0.48
6/9/2010,1800,32.5,35,5.5,0,685.4,160,298,160,0,165,0.36
6/9/2010,1900,30.8,39,4.6,0,278.3,160,121,26,0,30,0.23
6/9/2010,2000,27.7,52,4.4,0,18.4,160,8,-57,0,-41,0.07
6/9/2010,2100,25.5,62,3.1,0,0,160,0,-60,0,-45,0.04
6/9/2010,2200,23.8,70,3.5,0,0,160,0,-58,0,-44,0.03
6/9/2010,2300,22.9,74,3.1,0,0,160,0,-58,0,-44,0.02
6/9/2010,2400,21.9,76,1.7,0,0,160,0,-58,0,-44,0.01
6/10/2010,100,22,73,1.4,0,0,161,0,-59,0,-44,0.01
6/10/2010,200,21.5,71,1.1,0,0,161,0,-59,0,-44,0
6/10/2010,300,20.4,76,1,0,0,161,0,-59,0,-43,0
6/10/2010,400,19.6,79,1,0,0,161,0,-58,0,-43,0
6/10/2010,500,20.4,75,1.6,0,11.5,161,5,-55,0,-40,0.01
6/10/2010,600,21.6,78,3.1,0,197.8,161,86,9,0,13,0.05
6/10/2010,700,22.7,77,3.8,0,609.5,161,265,147,0,150,0.13
6/10/2010,800,24.8,69,3.4,0,1028.1,161,447,281,0,263,0.24
6/10/2010,900,27,58,2.7,0,1412.2,161,614,403,0,374,0.36
6/10/2010,1000,28.4,50,3.7,0,1768.7,161,769,516,0,477,0.48
6/10/2010,1100,30.1,41,4,0,1973.4,161,858,580,0,540,0.57
6/10/2010,1200,31.1,36,4,0,2037.8,161,886,602,0,562,0.62
6/10/2010,1300,32.2,31,4.5,0,2162,161,940,634,0,587,0.68
6/10/2010,1400,32.9,28,4.4,0,2063.1,161,897,598,0,556,0.68
6/10/2010,1500,34,24,4.5,0,1844.6,161,802,523,0,488,0.66
6/10/2010,1600,34.5,23,4.4,0,1506.5,161,655,413,0,391,0.58
6/10/2010,1700,34.8,22,5.2,0,1085.6,161,472,279,0,271,0.52
6/10/2010,1800,34.5,22,5.6,0,630.2,161,274,142,0,151,0.43
6/10/2010,1900,33.8,23,4.7,0,285.2,161,124,27,0,32,0.31
6/10/2010,2000,31.5,30,3,0,20.7,161,9,-57,0,-40,0.1
6/10/2010,2100,29.5,41,2.8,0,0,161,0,-59,0,-43,0.07
6/10/2010,2200,28.4,45,3.3,0,0,161,0,-58,0,-43,0.07
6/10/2010,2300,28.6,39,4.5,0,0,161,0,-60,0,-44,0.09
6/10/2010,2400,29.5,33,7.7,0,0,161,0,-63,0,-46,0.13
6/11/2010,100,29,33,9,0,0,162,0,-63,0,-54,0.14
6/11/2010,200,28.3,34,8.6,0,0,162,0,-63,0,-53,0.13
6/11/2010,300,27.8,34,9.1,0,0,162,0,-63,0,-53,0.13
6/11/2010,400,27.3,35,8.6,0,0,162,0,-62,0,-53,0.12
6/11/2010,500,26.7,37,8.8,0,11.5,162,5,-58,0,-49,0.11
6/11/2010,600,26.7,37,8.8,0,232.3,162,101,16,0,13,0.29
6/11/2010,700,27.9,35,9.9,0,623.3,162,271,136,0,147,0.38
6/11/2010,800,29.2,33,10.3,0,1041.9,162,453,269,0,259,0.48
6/11/2010,900,30.7,31,9.8,0,1446.7,162,629,398,0,375,0.58
6/11/2010,1000,32.2,28,10.4,0,1791.7,162,779,508,0,474,0.7
6/11/2010,1100,33.8,26,9.6,0,2035.5,162,885,587,0,545,0.78
6/11/2010,1200,35,24,9.5,0,2166.6,162,942,628,0,581,0.85
6/11/2010,1300,36.4,23,9.1,0,2164.3,162,941,628,0,584,0.89
6/11/2010,1400,37.3,21,9.3,0,2053.9,162,893,589,0,551,0.9
6/11/2010,1500,37.9,20,9.3,0,1833.1,162,797,516,0,486,0.88
6/11/2010,1600,38.3,19,9.1,0,1506.5,162,655,409,0,390,0.81
6/11/2010,1700,38.3,19,8.8,0,1110.9,162,483,282,0,276,0.72
6/11/2010,1800,38,19,7.7,0,687.7,162,299,149,0,162,0.58
6/11/2010,1900,37.3,19,6.6,0,287.5,162,125,15,0,25,0.44
6/11/2010,2000,35.7,21,5.2,0,20.7,162,9,-72,0,-50,0.18
6/11/2010,2100,33.7,24,4.1,0,0,162,0,-77,0,-56,0.14
6/11/2010,2200,33.2,24,4.1,0,0,162,0,-77,0,-56,0.13
6/11/2010,2300,32.5,27,4.5,0,0,162,0,-75,0,-54,0.13
6/11/2010,2400,30.6,32,3.8,0,0,162,0,-72,0,-52,0.1
6/12/2010,100,29.4,35,4,0,0,163,0,-70,0,-54,0.1
6/12/2010,200,29.2,35,4.7,0,0,163,0,-70,0,-55,0.1
6/12/2010,300,28.5,37,5,0,0,163,0,-69,0,-54,0.1
6/12/2010,400,28.4,36,4.7,0,0,163,0,-70,0,-54,0.1
6/12/2010,500,28.4,37,5.1,0,11.5,163,5,-66,0,-50,0.1
6/12/2010,600,28.8,38,5.9,0,239.2,163,104,11,0,14,0.24
6/12/2010,700,30.5,35,6.2,0,632.5,163,275,138,0,149,0.35
6/12/2010,800,32.1,33,7.4,0,1060.3,163,461,274,0,263,0.49
6/12/2010,900,34.7,28,7.7,0,1472,163,640,403,0,378,0.64
6/12/2010,1000,36.1,24,9.1,0,1810.1,163,787,510,0,474,0.8
6/12/2010,1100,37.4,20,9,0,2047,163,890,584,0,540,0.9
6/12/2010,1200,38.7,20,8.6,0,2164.3,163,941,624,0,579,0.95
6/12/2010,1300,39.8,19,8.2,0,2159.7,163,939,622,0,581,0.97
6/12/2010,1400,40.6,18,7.3,0,2047,163,890,584,0,549,0.95
6/12/2010,1500,41.5,16,6.6,0,1830.8,163,796,510,0,483,0.89
6/12/2010,1600,42,16,5.7,0,1497.3,163,651,403,0,387,0.77
6/12/2010,1700,42.1,16,5.3,0,1104,163,480,278,0,273,0.65
6/12/2010,1800,42,17,4.8,0,683.1,163,297,147,0,161,0.5
6/12/2010,1900,40.9,18,3,0,289.8,163,126,17,0,26,0.28
6/12/2010,2000,38,22,2,0,23,163,10,-69,0,-48,0.1
6/12/2010,2100,34.6,28,1.8,0,0,163,0,-72,0,-52,0.07
6/12/2010,2200,32.3,31,1.9,0,0,163,0,-71,0,-52,0.07
6/12/2010,2300,29.5,38,1.2,0,0,163,0,-67,0,-49,0.03
6/12/2010,2400,29.2,38,1.2,0,0,163,0,-68,0,-49,0.03
6/13/2010,100,29.5,36,1.6,0,0,164,0,-69,0,-54,0.05
6/13/2010,200,30.3,34,2.5,0,0,164,0,-69,0,-54,0.07
6/13/2010,300,28.8,38,2.4,0,0,164,0,-68,0,-53,0.06
6/13/2010,400,29.9,36,3.6,0,0,164,0,-68,0,-53,0.09
6/13/2010,500,30.1,35,4.3,0,11.5,164,5,-65,0,-50,0.1
6/13/2010,600,29.8,38,4.1,0,234.6,164,102,11,0,14,0.2
6/13/2010,700,32.6,33,5.3,0,630.2,164,274,137,0,149,0.35
6/13/2010,800,34.7,31,6,0,1055.7,164,459,272,0,262,0.5
6/13/2010,900,36.8,29,5.2,0,1460.5,164,635,403,0,378,0.61
6/13/2010,1000,38.7,25,5.5,0,1807.8,164,786,512,0,475,0.75
6/13/2010,1100,40.4,21,5.2,0,2053.9,164,893,588,0,539,0.85
6/13/2010,1200,41.8,19,4.9,0,2182.7,164,949,629,0,562,0.91
6/13/2010,1300,43.2,16,4.7,0,2191.9,164,953,627,0,573,0.94
6/13/2010,1400,43.8,14,4.1,0,2086.1,164,907,588,0,545,0.89
6/13/2010,1500,44.4,14,4,0,1867.6,164,812,517,0,485,0.83
6/13/2010,1600,44.6,14,3.1,0,1527.2,164,664,407,0,390,0.68
6/13/2010,1700,44.7,15,2.1,0,1117.8,164,486,280,0,276,0.47
6/13/2010,1800,43.9,18,3.4,0,683.1,164,297,150,0,162,0.43
6/13/2010,1900,41.6,20,3.5,0,287.5,164,125,19,0,28,0.31
6/13/2010,2000,38.4,24,2.6,0,20.7,164,9,-67,0,-47,0.12
6/13/2010,2100,35.4,29,1.7,0,0,164,0,-71,0,-52,0.07
6/13/2010,2200,31.6,41,2.1,0,0,164,0,-65,0,-47,0.06
6/13/2010,2300,29.4,51,1.6,0,0,164,0,-61,0,-45,0.03
6/13/2010,2400,28.3,57,1.1,0,0,164,0,-59,0,-44,0.02
6/14/2010,100,26.9,63,1.5,0,0,165,0,-57,0,-43,0.02
6/14/2010,200,26.4,63,1.7,0,0,165,0,-58,0,-44,0.02
6/14/2010,300,25.6,66,1.7,0,0,165,0,-57,0,-43,0.02
6/14/2010,400,24.9,68,1.3,0,0,165,0,-57,0,-43,0.01
6/14/2010,500,24.3,70,1,0,11.5,165,5,-53,0,-39,0
6/14/2010,600,25.1,68,1.6,0,223.1,165,97,18,0,20,0.06
6/14/2010,700,27,65,2.3,0,607.2,165,264,146,0,149,0.16
6/14/2010,800,30.5,56,1.9,0,1023.5,165,445,278,0,261,0.29
6/14/2010,900,33.7,47,1.8,0,1412.2,165,614,403,0,374,0.43
6/14/2010,1000,35.1,42,2.7,0,1764.1,165,767,515,0,476,0.57
6/14/2010,1100,36.9,34,3.8,0,1991.8,165,866,585,0,544,0.7
6/14/2010,1200,37.8,31,4.5,0,2095.3,165,911,618,0,576,0.77
6/14/2010,1300,39.3,28,4.6,0,2088.4,165,908,615,0,575,0.81
6/14/2010,1400,40.7,24,5,0,2030.9,165,883,589,0,552,0.84
6/14/2010,1500,41.3,23,5.3,0,1817,165,790,518,0,486,0.81
6/14/2010,1600,41.8,21,5.4,0,1501.9,165,653,412,0,391,0.74
6/14/2010,1700,41.3,23,4.5,0,1117.8,165,486,291,0,281,0.58
6/14/2010,1800,38.8,35,4.9,0,692.3,165,301,167,0,169,0.42
6/14/2010,1900,35.4,44,4.1,0,276,165,120,47,0,34,0.23
6/14/2010,2000,31.8,50,3.3,0,20.7,165,9,-38,0,-39,0.07
6/14/2010,2100,29,55,3.4,0,0,165,0,-45,0,-45,0.06
6/14/2010,2200,27.3,60,2.9,0,0,165,0,-44,0,-44,0.04
6/14/2010,2300,26,64,2.7,0,0,165,0,-44,0,-44,0.03
6/14/2010,2400,24.9,67,2.7,0,0,165,0,-43,0,-44,0.03
6/15/2010,100,24.1,69,2.3,0,0,166,0,-43,0,-42,0.02
6/15/2010,200,23.2,71,1.3,0,0,166,0,-43,0,-42,0.01
6/15/2010,300,22.5,72,1.3,0,0,166,0,-43,0,-42,0.01
6/15/2010,400,21.9,74,1.8,0,0,166,0,-43,0,-42,0.01
6/15/2010,500,21.6,75,1.5,0,6.9,166,3,-41,0,-39,0.01
6/15/2010,600,22.5,72,2.1,0,216.2,166,94,29,0,20,0.06
6/15/2010,700,24.6,64,2.6,0,593.4,166,258,141,0,146,0.15
6/15/2010,800,27.5,58,2.1,0,1018.9,166,443,276,0,260,0.27
6/15/2010,900,29.9,55,1.5,0,1419.1,166,617,406,0,376,0.38
6/15/2010,1000,31.9,50,1.9,0,1697.4,166,738,499,0,462,0.49
6/15/2010,1100,33.9,40,2,0,2003.3,166,871,591,0,548,0.61
6/15/2010,1200,35.4,30,2.3,0,2109.1,166,917,619,0,578,0.68
6/15/2010,1300,36.5,33,3.7,0,2136.7,166,929,631,0,587,0.73
6/15/2010,1400,36.7,33,4.6,0,2012.5,166,875,592,0,552,0.72
6/15/2010,1500,36.9,32,5.2,0,1791.7,166,779,518,0,485,0.69
6/15/2010,1600,36.5,33,5.4,0,1435.2,166,624,406,0,380,0.6
6/15/2010,1700,35.3,35,5.1,0,1032.7,166,449,279,0,264,0.47
6/15/2010,1800,34.1,39,4.1,0,443.9,166,193,117,0,111,0.29
6/15/2010,1900,32.8,42,3.4,0,280.6,166,122,45,0,72,0.19
6/15/2010,2000,30.2,48,3,0,32.2,166,14,-37,0,-27,0.07
6/15/2010,2100,27.8,55,2.7,0,0,166,0,-46,0,-36,0.04
6/15/2010,2200,26.5,59,2.9,0,0,166,0,-46,0,-36,0.04
6/15/2010,2300,25.4,63,2.5,0,0,166,0,-45,0,-35,0.03
6/15/2010,2400,24.1,68,1.5,0,0,166,0,-44,0,-35,0.01
6/16/2010,100,22.8,73,1.2,0,0,167,0,-44,0,-49,0
6/16/2010,200,22.5,74,2.3,0,0,167,0,-44,0,-49,0.01
6/16/2010,300,22,78,2.1,0,0,167,0,-43,0,-49,0.01
6/16/2010,400,21.2,81,1.3,0,0,167,0,-43,0,-49,0
6/16/2010,500,21.5,69,1.7,0,9.2,167,4,-42,0,-48,0.01
6/16/2010,600,25.1,35,3.6,0,246.1,167,107,29,0,10,0.16
6/16/2010,700,28.2,24,5.6,0,655.5,167,285,134,0,148,0.34
6/16/2010,800,29.7,23,7.6,0,1083.3,167,471,270,0,261,0.5
6/16/2010,900,30.8,22,8.9,0,1490.4,167,648,401,0,374,0.62
6/16/2010,1000,32.4,21,7.7,0,1830.8,167,796,512,0,459,0.7
6/16/2010,1100,33.3,18,7.8,0,2076.9,167,903,590,0,524,0.79
6/16/2010,1200,34.5,18,6.4,0,2203.4,167,958,633,0,563,0.82
6/16/2010,1300,35.6,16,6.2,0,2212.6,167,962,633,0,564,0.84
6/16/2010,1400,36.7,13,5.6,0,2109.1,167,917,594,0,526,0.84
6/16/2010,1500,37.1,13,5.3,0,1879.1,167,817,518,0,482,0.77
6/16/2010,1600,37.3,13,4.2,0,1541,167,670,409,0,390,0.65
6/16/2010,1700,37.4,13,3.5,0,1136.2,167,494,280,0,277,0.51
6/16/2010,1800,37.3,12,2.8,0,655.5,167,285,138,0,153,0.35
6/16/2010,1900,36.7,12,1.7,0,273.7,167,119,27,0,65,0.17
6/16/2010,2000,31.1,28,1.2,0,23,167,10,-46,0,-34,0.04
6/16/2010,2100,27.3,43,1.1,0,2.3,167,1,-47,0,-37,0.02
6/16/2010,2200,26.1,53,1,0,2.3,167,1,-45,0,-36,0.01
6/16/2010,2300,24.9,60,0.7,0,2.3,167,1,-43,0,-35,0
6/16/2010,2400,23.5,67,1,0,2.3,167,1,-42,0,-34,0.01
6/17/2010,100,22.5,70,0.8,0,2.3,168,1,-42,0,-45,0
6/17/2010,200,21.6,73,1.2,0,2.3,168,1,-41,0,-45,0
6/17/2010,300,21.7,70,1.3,0,2.3,168,1,-42,0,-45,0.01
6/17/2010,400,20.6,75,1.2,0,0,168,0,-42,0,-45,0
6/17/2010,500,20.1,81,0.9,0,11.5,168,5,-37,0,-40,0
6/17/2010,600,21.9,79,1.5,0,223.1,168,97,34,0,20,0.04
6/17/2010,700,26,57,3.6,0,616.4,168,268,144,0,150,0.19
6/17/2010,800,29.7,39,5.7,0,1055.7,168,459,275,0,264,0.4
6/17/2010,900,31.5,32,5.5,0,1472,168,640,405,0,379,0.53
6/17/2010,1000,32.6,30,4.8,0,1821.6,168,792,518,0,474,0.62
6/17/2010,1100,33.8,27,3.4,0,1920.5,168,835,556,0,523,0.64
6/17/2010,1200,34.9,26,2.4,0,2042.4,168,888,596,0,560,0.66
6/17/2010,1300,36.4,22,1.7,0,2256.3,168,981,656,0,587,0.72
6/17/2010,1400,37.4,19,2.2,0,2063.1,168,897,590,0,552,0.7
6/17/2010,1500,38.4,18,2.1,0,1810.1,168,787,508,0,482,0.63
6/17/2010,1600,38.7,19,2.9,0,1559.4,168,678,423,0,400,0.6
6/17/2010,1700,38.8,17,2.3,0,1087.9,168,473,276,0,272,0.44
6/17/2010,1800,38.4,19,3.1,0,696.9,168,303,153,0,165,0.37
6/17/2010,1900,36.5,27,2.8,0,280.6,168,122,39,0,71,0.22
6/17/2010,2000,32.9,39,2.8,0,20.7,168,9,-42,0,-31,0.08
6/17/2010,2100,28.8,51,3.1,0,0,168,0,-46,0,-36,0.06
6/17/2010,2200,26.7,54,1.9,0,0,168,0,-46,0,-36,0.03
6/17/2010,2300,24.8,63,1.5,0,0,168,0,-44,0,-35,0.02
6/17/2010,2400,24.1,67,1.6,0,0,168,0,-44,0,-35,0.01
6/18/2010,100,23,71,1.4,0,0,169,0,-43,0,-44,0.01
6/18/2010,200,22.6,72,1.7,0,0,169,0,-43,0,-44,0.01
6/18/2010,300,21.9,76,1.7,0,0,169,0,-43,0,-43,0.01
6/18/2010,400,21.2,81,1.9,0,0,169,0,-42,0,-43,0.01
6/18/2010,500,20.8,82,1.6,0,9.2,169,4,-39,0,-39,0
6/18/2010,600,21.9,78,1.9,0,218.5,169,95,31,0,19,0.04
6/18/2010,700,24.3,70,1.9,0,609.5,169,265,146,0,150,0.14
6/18/2010,800,26.9,64,2.3,0,1035,169,450,282,0,264,0.26
6/18/2010,900,29.5,54,1.6,0,1439.8,169,626,410,0,380,0.39
6/18/2010,1000,30.1,53,3.9,0,1771,169,770,519,0,479,0.5
6/18/2010,1100,30.7,50,4.2,0,2044.7,169,889,607,0,553,0.57
6/18/2010,1200,31.9,45,5.1,0,2134.4,169,928,636,0,588,0.63
6/18/2010,1300,32.8,43,6,0,1989.5,169,865,595,0,552,0.64
6/18/2010,1400,33.2,41,6.2,0,1918.2,169,834,569,0,529,0.64
6/18/2010,1500,34,37,6.1,0,1828.5,169,795,531,0,494,0.64
6/18/2010,1600,34,40,6,0,1499.6,169,652,427,0,398,0.56
6/18/2010,1700,33,43,6.3,0,1101.7,169,479,300,0,283,0.45
6/18/2010,1800,30.8,47,6.5,0,685.4,169,298,169,0,169,0.33
6/18/2010,1900,28.6,51,5.9,0,289.8,169,126,49,0,74,0.21
6/18/2010,2000,25.9,60,5.4,0,23,169,10,-39,0,-29,0.06
6/18/2010,2100,24.3,66,4.8,0,0,169,0,-46,0,-35,0.04
6/18/2010,2200,23.3,70,5.2,0,0,169,0,-45,0,-35,0.04
6/18/2010,2300,22.7,72,4.8,0,0,169,0,-45,0,-35,0.03
6/18/2010,2400,22.2,73,4.2,0,0,169,0,-45,0,-35,0.03
6/19/2010,100,21.6,75,3.8,0,0,170,0,-45,0,-42,0.02
6/19/2010,200,20.7,79,3,0,0,170,0,-45,0,-41,0.01
6/19/2010,300,19.8,82,2.7,0,0,170,0,-44,0,-41,0.01
6/19/2010,400,19.8,82,2.6,0,0,170,0,-44,0,-41,0.01
6/19/2010,500,19.4,83,2.8,0,11.5,170,5,-40,0,-38,0.01
6/19/2010,600,19.9,82,3.2,0,211.6,170,92,27,0,19,0.05
6/19/2010,700,22,75,2.4,0,591.1,170,257,142,0,146,0.12
6/19/2010,800,24,72,1.7,0,1009.7,170,439,276,0,259,0.22
6/19/2010,900,25.7,66,2.1,0,1290.3,170,561,373,0,344,0.31
6/19/2010,1000,26.9,59,2.3,0,1750.3,170,761,514,0,475,0.43
6/19/2010,1100,28.2,54,2.8,0,1994.1,170,867,592,0,548,0.51
6/19/2010,1200,29.6,49,3.1,0,2097.6,170,912,626,0,581,0.57
6/19/2010,1300,30.9,46,3.6,0,2042.4,170,888,610,0,567,0.59
6/19/2010,1400,32,44,4.2,0,2033.2,170,884,603,0,559,0.61
6/19/2010,1500,32.7,42,4.9,0,1800.9,170,783,526,0,490,0.58
6/19/2010,1600,32.9,39,5.3,0,1483.5,170,645,421,0,393,0.53
6/19/2010,1700,32,39,5.6,0,1101.7,170,479,297,0,282,0.44
6/19/2010,1800,30.8,42,5.6,0,683.1,170,297,166,0,168,0.33
6/19/2010,1900,28.6,48,5.7,0,280.6,170,122,47,0,73,0.21
6/19/2010,2000,26.3,55,4.7,0,25.3,170,11,-37,0,-27,0.06
6/19/2010,2100,24.5,63,4.1,0,0,170,0,-44,0,-35,0.04
6/19/2010,2200,23.4,67,3.9,0,0,170,0,-43,0,-34,0.03
6/19/2010,2300,22.8,71,3.1,0,0,170,0,-43,0,-34,0.02
6/19/2010,2400,22.1,75,2.5,0,0,170,0,-42,0,-34,0.02
6/20/2010,100,21.5,78,2.4,0,0,171,0,-42,0,-34,0.01
6/20/2010,200,21.1,79,1.9,0,0,171,0,-42,0,-34,0.01
6/20/2010,300,20.3,81,1,0,0,171,0,-42,0,-34,0
6/20/2010,400,19.5,83,1.2,0,0,171,0,-42,0,-34,0
6/20/2010,500,18.4,86,1.7,0,11.5,171,5,-38,0,-30,0
6/20/2010,600,19.5,86,2.5,0,225.4,171,98,34,0,30,0.04
6/20/2010,700,21.7,81,4.1,0,508.3,171,221,127,0,129,0.11
6/20/2010,800,23.4,74,3.7,0,1000.5,171,435,274,0,257,0.22
6/20/2010,900,25.5,66,3.5,0,1435.2,171,624,411,0,380,0.33
6/20/2010,1000,28.1,57,3.2,0,1782.5,171,775,523,0,481,0.46
6/20/2010,1100,30.2,47,4.1,0,2035.5,171,885,602,0,552,0.57
6/20/2010,1200,31.9,40,4.4,0,2180.4,171,948,646,0,574,0.66
6/20/2010,1300,33.2,35,3.6,0,2145.9,171,933,633,0,588,0.67
6/20/2010,1400,34.4,30,3.4,0,1906.7,171,829,558,0,523,0.64
6/20/2010,1500,35.3,26,3,0,1591.6,171,692,458,0,429,0.57
6/20/2010,1600,36.2,24,3.3,0,1587,171,690,436,0,405,0.58
6/20/2010,1700,36.5,25,3.1,0,1150,171,500,299,0,288,0.46
6/20/2010,1800,36.6,23,3.5,0,726.8,171,316,163,0,172,0.37
6/20/2010,1900,35.9,23,2.9,0,280.6,171,122,38,0,70,0.23
6/20/2010,2000,33.8,28,1.3,0,20.7,171,9,-47,0,-34,0.05
6/20/2010,2100,29.8,38,0.9,0,0,171,0,-50,0,-38,0.02
6/20/2010,2200,27.7,54,0.8,0,0,171,0,-45,0,-35,0.01
6/20/2010,2300,27,60,1.3,0,0,171,0,-43,0,-34,0.02
6/20/2010,2400,25.7,65,0.9,0,0,171,0,-43,0,-34,0
6/21/2010,100,24.5,68,1.2,0,0,172,0,-42,0,-27,0.01
6/21/2010,200,27,49,2.5,0,0,172,0,-47,0,-30,0.05
6/21/2010,300,28.8,40,3.6,0,0,172,0,-49,0,-31,0.08
6/21/2010,400,28.1,42,3.8,0,0,172,0,-49,0,-31,0.08
6/21/2010,500,27.2,49,3.2,0,6.9,172,3,-44,0,-27,0.06
6/21/2010,600,26.4,55,1.4,0,115,172,50,-7,0,8,0.04
6/21/2010,700,28.6,47,2,0,391,172,170,99,0,99,0.16
6/21/2010,800,30.8,37,3.8,0,671.6,172,292,186,0,168,0.31
6/21/2010,900,33.5,31,6.2,0,1446.7,172,629,399,0,374,0.57
6/21/2010,1000,34.8,29,6,0,1764.1,172,767,502,0,470,0.67
6/21/2010,1100,35.7,28,4.6,0,1998.7,172,869,579,0,542,0.72
6/21/2010,1200,36.8,27,4.5,0,2074.6,172,902,607,0,569,0.76
6/21/2010,1300,38.1,26,4,0,2168.9,172,943,634,0,588,0.79
6/21/2010,1400,39.2,23,3.5,0,2063.1,172,897,596,0,556,0.77
6/21/2010,1500,40,19,3.4,0,1842.3,172,801,518,0,489,0.72
6/21/2010,1600,40.4,17,2.4,0,1520.3,172,661,411,0,393,0.58
6/21/2010,1700,40.5,17,1.9,0,1120.1,172,487,284,0,279,0.44
6/21/2010,1800,39.7,25,3.1,0,685.4,172,298,159,0,166,0.37
6/21/2010,1900,37.8,32,3.3,0,278.3,172,121,45,0,72,0.25
6/21/2010,2000,35.9,34,3.2,0,23,172,10,-41,0,-30,0.11
6/21/2010,2100,33.1,39,2.1,0,0,172,0,-47,0,-37,0.07
6/21/2010,2200,30.3,48,1.7,0,0,172,0,-45,0,-35,0.04
6/21/2010,2300,27,59,1.5,0,0,172,0,-43,0,-34,0.02
6/21/2010,2400,25.8,62,1.3,0,0,172,0,-43,0,-34,0.01
6/22/2010,100,24.7,66,1.6,0,0,173,0,-42,0,-43,0.01
6/22/2010,200,24.1,69,1.4,0,0,173,0,-42,0,-42,0.01
6/22/2010,300,23.9,70,1.2,0,0,173,0,-41,0,-42,0.01
6/22/2010,400,23.6,72,1.4,0,0,173,0,-41,0,-42,0.01
6/22/2010,500,22.7,76,1.1,0,9.2,173,4,-38,0,-39,0
6/22/2010,600,22.9,77,1.5,0,211.6,173,92,30,0,18,0.04
6/22/2010,700,25,72,1.7,0,593.4,173,258,143,0,147,0.14
6/22/2010,800,28.4,61,1.6,0,1012,173,440,275,0,258,0.26
6/22/2010,900,31.6,50,1.4,0,1416.8,173,616,403,0,374,0.4
6/22/2010,1000,34.1,42,1.5,0,1729.6,173,752,504,0,468,0.52
6/22/2010,1100,36.5,37,1.7,0,1996.4,173,868,588,0,546,0.64
6/22/2010,1200,38.1,32,1.8,0,2134.4,173,928,630,0,584,0.7
6/22/2010,1300,39.5,28,2,0,2162,173,940,635,0,589,0.74
6/22/2010,1400,40.5,27,2.4,0,2049.3,173,891,598,0,558,0.74
6/22/2010,1500,41.3,25,2.2,0,1777.9,173,773,510,0,480,0.66
6/22/2010,1600,41.6,23,2.9,0,1363.9,173,593,381,0,360,0.58
6/22/2010,1700,41.3,23,3,0,926.9,173,403,248,0,235,0.46
6/22/2010,1800,39.8,30,2.7,0,363.4,173,158,101,0,95,0.28
6/22/2010,1900,38.1,37,2.3,0,142.6,173,62,38,0,51,0.17
6/22/2010,2000,35.2,46,2.2,0,13.8,173,6,-4,0,-17,0.06
6/22/2010,2100,31.9,55,1.8,0,0,173,0,-8,0,-21,0.04
6/22/2010,2200,30,57,1.8,0,0,173,0,-9,0,-21,0.03
6/22/2010,2300,29.4,57,2.1,0,0,173,0,-9,0,-21,0.04
6/22/2010,2400,27.8,63,1.9,0,0,173,0,-8,0,-20,0.02
6/23/2010,100,26.3,68,1.7,0,0,174,0,-8,0,-24,0.02
6/23/2010,200,25.2,72,2.1,0,0,174,0,-8,0,-23,0.02
6/23/2010,300,24.9,75,1.9,0,0,174,0,-8,0,-23,0.01
6/23/2010,400,24.9,76,1.5,0,0,174,0,-8,0,-23,0.01
6/23/2010,500,25.3,73,1.4,0,4.6,174,2,-7,0,-21,0.01
6/23/2010,600,25.1,75,1.7,0,161,174,70,46,0,23,0.04
6/23/2010,700,26,74,1.7,0,319.7,174,139,89,0,88,0.1
6/23/2010,800,28.5,67,0.9,0,696.9,174,303,199,0,177,0.19
6/23/2010,900,31.5,58,1.4,0,1419.1,174,617,409,0,376,0.39
6/23/2010,1000,34.4,50,1.8,0,1761.8,174,766,519,0,477,0.53
6/23/2010,1100,37,42,1.6,0,1978,174,860,588,0,544,0.63
6/23/2010,1200,38.7,40,2.1,0,2132.1,174,927,639,0,588,0.71
6/23/2010,1300,39.5,36,2.9,0,2150.5,174,935,641,0,592,0.75
6/23/2010,1400,40.7,30,2.7,0,2067.7,174,899,608,0,562,0.75
6/23/2010,1500,41.1,28,3.9,0,1616.9,174,703,470,0,438,0.68
6/23/2010,1600,40.9,26,3.3,0,1064.9,174,463,307,0,275,0.52
6/23/2010,1700,40.9,30,3,0,736,174,320,208,0,185,0.4
6/23/2010,1800,39,38,3.1,0,508.3,174,221,133,0,128,0.3
6/23/2010,1900,35.4,43,3.1,0.1,209.3,174,91,44,0,61,0.19
6/23/2010,2000,31.4,49,2.8,0,25.3,174,11,-17,0,-19,0.07
6/23/2010,2100,28.9,57,2.1,0,0,174,0,-25,0,-26,0.04
6/23/2010,2200,27.2,65,2,0,0,174,0,-24,0,-26,0.02
6/23/2010,2300,25.6,73,1.8,0,0,174,0,-23,0,-25,0.01
6/23/2010,2400,24.4,78,1.8,0,0,174,0,-23,0,-25,0.01
6/24/2010,100,24.3,78,2.4,0,0,175,0,-23,0,-22,0.01
6/24/2010,200,24.2,79,1.9,0,0,175,0,-23,0,-22,0.01
6/24/2010,300,23.8,82,1.6,0,0,175,0,-23,0,-21,0
6/24/2010,400,23.4,82,2,0,0,175,0,-23,0,-21,0.01
6/24/2010,500,22.7,85,1.5,0,6.9,175,3,-21,0,-19,0
6/24/2010,600,22.7,86,1.7,0,140.3,175,61,24,0,24,0.02
6/24/2010,700,24.2,80,2,0,289.8,175,126,83,0,80,0.08
6/24/2010,800,26.4,72,0.9,0,623.3,175,271,181,0,156,0.16
6/24/2010,900,28.4,65,1.5,0,1122.4,175,488,329,0,296,0.3
6/24/2010,1000,31.2,57,2.4,0,1446.7,175,629,431,0,392,0.42
6/24/2010,1100,32.7,52,2.7,0,1950.4,175,848,583,0,539,0.57
6/24/2010,1200,34.2,47,3.9,0,2065.4,175,898,620,0,574,0.64
6/24/2010,1300,35.7,43,3.8,0,2152.8,175,936,644,0,594,0.7
6/24/2010,1400,36.3,41,4.8,0,1899.8,175,826,567,0,525,0.67
6/24/2010,1500,35.7,43,5.4,0,1800.9,175,783,530,0,491,0.63
6/24/2010,1600,34.5,46,5.7,0,1442.1,175,627,417,0,386,0.53
6/24/2010,1700,34.1,46,5,0,1087.9,175,473,300,0,281,0.43
6/24/2010,1800,32.6,49,4.6,0,694.6,175,302,174,0,172,0.3
6/24/2010,1900,29.9,56,4.7,0,292.1,175,127,53,0,76,0.18
6/24/2010,2000,26.9,65,4.6,0,25.3,175,11,-35,0,-26,0.05
6/24/2010,2100,25,71,4.4,0,0,175,0,-43,0,-34,0.03
6/24/2010,2200,23.9,75,4,0,0,175,0,-43,0,-34,0.02
6/24/2010,2300,23.5,77,3.8,0,0,175,0,-43,0,-34,0.02
6/24/2010,2400,23.2,78,3,0,0,175,0,-43,0,-33,0.02
6/25/2010,100,22.9,79,3,0,0,176,0,-43,0,-17,0.01
6/25/2010,200,22.6,81,2.1,0,0,176,0,-42,0,-17,0.01
6/25/2010,300,22.4,83,2.8,0,0,176,0,-42,0,-17,0.01
6/25/2010,400,22.7,83,3.8,0,0,176,0,-42,0,-17,0.01
6/25/2010,500,22.5,83,4.6,0,2.3,176,1,-41,0,-16,0.01
6/25/2010,600,22.5,84,3.1,0,48.3,176,21,-26,0,-1,0.01
6/25/2010,700,23,83,1.8,0,161,176,70,12,0,43,0.03
6/25/2010,800,24,80,1.3,0,441.6,176,192,135,0,106,0.12
6/25/2010,900,26.6,72,1.4,0,1301.8,176,566,378,0,347,0.32
6/25/2010,1000,28.6,68,2.4,0,1589.3,176,691,474,0,435,0.41
6/25/2010,1100,30.9,61,1.7,0,1876.8,176,816,565,0,520,0.52
6/25/2010,1200,33.3,55,2.3,0,2051.6,176,892,620,0,572,0.6
6/25/2010,1300,34.6,51,2.1,0,2065.4,176,898,624,0,575,0.63
6/25/2010,1400,36.1,48,2.9,0,1955,176,850,588,0,542,0.63
6/25/2010,1500,36.8,45,3.2,0,1685.9,176,733,501,0,462,0.58
6/25/2010,1600,37.4,42,3,0,1435.2,176,624,415,0,384,0.52
6/25/2010,1700,37.7,39,3.3,0,1067.2,176,464,293,0,275,0.43
6/25/2010,1800,37.6,38,2.9,0,657.8,176,286,163,0,163,0.31
6/25/2010,1900,36.7,45,2.7,0,278.3,176,121,52,0,74,0.18
6/25/2010,2000,33.1,55,2.5,0,23,176,10,-32,0,-26,0.06
6/25/2010,2100,30,62,2.6,0,0,176,0,-39,0,-32,0.04
6/25/2010,2200,27.5,67,2.3,0,0,176,0,-40,0,-32,0.03
6/25/2010,2300,26.3,71,2,0,0,176,0,-39,0,-32,0.02
6/25/2010,2400,25.1,76,1.8,0,0,176,0,-39,0,-32,0.01
6/26/2010,100,24.2,79,1.6,0,0,177,0,-39,0,-38,0.01
6/26/2010,200,23.8,80,1.3,0,0,177,0,-39,0,-38,0
6/26/2010,300,23.5,81,1.1,0,0,177,0,-39,0,-38,0
6/26/2010,400,23.4,82,0.6,0,0,177,0,-38,0,-38,0
6/26/2010,500,23.4,82,0.8,0,9.2,177,4,-35,0,-36,0
6/26/2010,600,24.3,80,0.9,0,190.9,177,83,26,0,16,0.03
6/26/2010,700,26.3,75,1.4,0,561.2,177,244,138,0,140,0.13
6/26/2010,800,29.4,67,1.1,0,954.5,177,415,264,0,246,0.25
6/26/2010,900,32.3,61,1.4,0,1347.8,177,586,392,0,360,0.38
6/26/2010,1000,35.2,51,1.9,0,1660.6,177,722,492,0,453,0.52
6/26/2010,1100,37.3,45,2.2,0,1932,177,840,578,0,534,0.63
6/26/2010,1200,39.2,41,2,0,2030.9,177,883,611,0,564,0.69
6/26/2010,1300,40.2,41,2.9,0,2095.3,177,911,632,0,582,0.74
6/26/2010,1400,41.5,39,3.2,0,1892.9,177,823,569,0,524,0.72
6/26/2010,1500,42.5,36,2.9,0,1780.2,177,774,526,0,486,0.69
6/26/2010,1600,43.4,34,2.7,0,1465.1,177,637,423,0,391,0.59
6/26/2010,1700,42.9,36,3.2,0,1083.3,177,471,301,0,280,0.49
6/26/2010,1800,41.5,40,3.1,0,669.3,177,291,171,0,167,0.34
6/26/2010,1900,39.5,45,3,0,285.2,177,124,55,0,75,0.21
6/26/2010,2000,34.8,51,2.8,0,25.3,177,11,-33,0,-27,0.07
6/26/2010,2100,31.7,56,2.2,0,0,177,0,-42,0,-34,0.04
6/26/2010,2200,29.7,61,1.8,0,0,177,0,-41,0,-33,0.03
6/26/2010,2300,27.7,67,2.1,0,0,177,0,-41,0,-33,0.02
6/26/2010,2400,26.7,69,1.6,0,0,177,0,-41,0,-33,0.01
6/27/2010,100,25.9,71,1.6,0,0,178,0,-41,0,-40,0.01
6/27/2010,200,25.2,73,1.1,0,0,178,0,-41,0,-40,0
6/27/2010,300,25,74,0.9,0,0,178,0,-41,0,-40,0
6/27/2010,400,24.5,77,0.9,0,0,178,0,-40,0,-39,0
6/27/2010,500,24.2,78,0.7,0,9.2,178,4,-37,0,-37,0
6/27/2010,600,25.6,73,0.7,0,195.5,178,85,25,0,15,0.03
6/27/2010,700,28.4,65,1.1,0,568.1,178,247,137,0,141,0.14
6/27/2010,800,30.8,59,1.1,0,938.4,178,408,258,0,241,0.26
6/27/2010,900,34.2,51,1,0,1205.2,178,524,349,0,319,0.36
6/27/2010,1000,37.1,44,1.3,0,1651.4,178,718,486,0,449,0.53
6/27/2010,1100,40.4,31,3.1,0,1971.1,178,857,579,0,539,0.73
6/27/2010,1200,42.2,28,4.1,0,2113.7,178,919,623,0,580,0.84
6/27/2010,1300,43.7,25,4,0,2139,178,930,629,0,585,0.88
6/27/2010,1400,45.1,21,3.6,0,2047,178,890,593,0,555,0.86
6/27/2010,1500,46,20,2.4,0,1826.2,178,794,520,0,490,0.74
6/27/2010,1600,47.1,18,1.8,0,1499.6,178,652,411,0,392,0.6
6/27/2010,1700,47.1,22,2.2,0,1108.6,178,482,293,0,282,0.5
6/27/2010,1800,46.4,24,2.7,0,694.6,178,302,165,0,169,0.4
6/27/2010,1900,44.7,31,2.2,0,289.8,178,126,50,0,75,0.22
6/27/2010,2000,40.7,41,2.3,0,25.3,178,11,-34,0,-28,0.09
6/27/2010,2100,37.5,45,1.3,0,0,178,0,-43,0,-35,0.04
6/27/2010,2200,35,54,1.4,0,0,178,0,-41,0,-34,0.03
6/27/2010,2300,32.9,61,1.2,0,0,178,0,-40,0,-33,0.02
6/27/2010,2400,31.9,63,1.3,0,0,178,0,-40,0,-33,0.02
6/28/2010,100,31.1,62,1,0,0,179,0,-41,0,-37,0.01
6/28/2010,200,30.4,64,1.1,0,0,179,0,-41,0,-37,0.01
6/28/2010,300,29.3,67,0.9,0,0,179,0,-41,0,-37,0
6/28/2010,400,29,68,0.7,0,0,179,0,-41,0,-37,0
6/28/2010,500,30,70,1.2,0,9.2,179,4,-36,0,-33,0.01
6/28/2010,600,30.9,69,1.5,0,213.9,179,93,33,0,24,0.07
6/28/2010,700,34.1,61,1.8,0,540.5,179,235,135,0,136,0.18
6/28/2010,800,36.2,59,1.7,0,961.4,179,418,270,0,248,0.31
6/28/2010,900,38.8,47,2.5,0,1370.8,179,596,397,0,364,0.49
6/28/2010,1000,40.8,31,3.5,0,1731.9,179,753,500,0,466,0.68
6/28/2010,1100,43.3,23,4.9,0,1991.8,179,866,576,0,539,0.87
6/28/2010,1200,44.3,22,4.5,0,2127.5,179,925,620,0,579,0.91
6/28/2010,1300,45.2,21,3,0,2164.3,179,941,630,0,586,0.87
6/28/2010,1400,46.3,19,2.1,0,2070,179,900,596,0,557,0.8
6/28/2010,1500,47.2,20,2.2,0,1844.6,179,802,526,0,493,0.74
6/28/2010,1600,47,22,3.4,0,1501.9,179,653,419,0,395,0.7
6/28/2010,1700,46,28,3.5,0,1097.1,179,477,299,0,282,0.56
6/28/2010,1800,45.7,30,2.9,0,673.9,179,293,168,0,167,0.39
6/28/2010,1900,43.6,32,2.6,0,278.3,179,121,49,0,73,0.24
6/28/2010,2000,39.3,40,2.3,0,25.3,179,11,-33,0,-27,0.09
6/28/2010,2100,33.4,47,3.1,0,0,179,0,-42,0,-34,0.08
6/28/2010,2200,31,53,2.4,0,0,179,0,-42,0,-33,0.05
6/28/2010,2300,29.3,60,2.3,0,0,179,0,-40,0,-33,0.04
6/28/2010,2400,27.4,67,2.3,0,0,179,0,-39,0,-32,0.03
6/29/2010,100,26.6,70,1.8,0,0,180,0,-39,0,-40,0.02
6/29/2010,200,25.6,73,1.5,0,0,180,0,-39,0,-40,0.01
6/29/2010,300,24.9,76,1.9,0,0,180,0,-39,0,-40,0.01
6/29/2010,400,24.7,76,1.2,0,0,180,0,-39,0,-40,0
6/29/2010,500,24.5,77,1.1,0,6.9,180,3,-36,0,-38,0
6/29/2010,600,25.2,76,1.2,0,195.5,180,85,27,0,15,0.04
6/29/2010,700,27.9,68,1.2,0,568.1,180,247,137,0,141,0.14
6/29/2010,800,30.1,62,1.6,0,977.5,180,425,268,0,251,0.27
6/29/2010,900,32.7,57,1.8,0,1382.3,180,601,399,0,367,0.4
6/29/2010,1000,36.1,47,1.9,0,1697.4,180,738,500,0,462,0.54
6/29/2010,1100,39.9,32,2,0,1968.8,180,856,578,0,538,0.68
6/29/2010,1200,41.7,27,1.7,0,2102.2,180,914,618,0,576,0.74
6/29/2010,1300,42.8,29,2.8,0,2129.8,180,926,631,0,585,0.81
6/29/2010,1400,43.2,29,3.1,0,1932,180,840,571,0,532,0.77
6/29/2010,1500,44.3,26,2.8,0,1798.6,180,782,520,0,487,0.73
6/29/2010,1600,45.4,22,4,0,1497.3,180,651,417,0,394,0.72
6/29/2010,1700,45.2,17,5.4,0,1129.3,180,491,288,0,282,0.7
6/29/2010,1800,43.4,19,4.2,0,710.7,180,309,159,0,170,0.48
6/29/2010,1900,39.4,30,3.3,0,310.5,180,135,47,0,77,0.26
6/29/2010,2000,35.7,36,2.3,0,27.6,180,12,-46,0,-34,0.08
6/29/2010,2100,33.3,37,3.2,0,0,180,0,-56,0,-41,0.09
6/29/2010,2200,30.5,44,2.2,0,0,180,0,-54,0,-40,0.06
6/29/2010,2300,28.3,49,2.8,0,0,180,0,-53,0,-39,0.05
6/29/2010,2400,27,55,2.5,0,0,180,0,-51,0,-38,0.04
6/30/2010,100,25.7,61,1.8,0,0,181,0,-50,0,-43,0.02
6/30/2010,200,24.4,68,2,0,0,181,0,-48,0,-43,0.02
6/30/2010,300,23.6,71,1.7,0,0,181,0,-48,0,-42,0.01
6/30/2010,400,23.3,73,1.3,0,0,181,0,-48,0,-42,0.01
6/30/2010,500,22.7,73,1.6,0,9.2,181,4,-45,0,-40,0.01
6/30/2010,600,23.3,71,1.6,0,209.3,181,91,22,0,17,0.05
6/30/2010,700,26,62,1.9,0,577.3,181,251,135,0,142,0.15
6/30/2010,800,28.9,55,2.7,0,1028.1,181,447,275,0,260,0.29
6/30/2010,900,31.8,47,2.8,0,1405.3,181,611,398,0,369,0.43
6/30/2010,1000,34.5,36,2.5,0,1722.7,181,749,497,0,463,0.55
6/30/2010,1100,35.9,33,3.1,0,1978,181,860,578,0,539,0.66
6/30/2010,1200,36.4,33,3.8,0,2162,181,940,637,0,584,0.74
6/30/2010,1300,37.8,29,3.8,0,2185,181,950,641,0,588,0.78
6/30/2010,1400,38.8,25,4,0,2072.3,181,901,601,0,558,0.78
6/30/2010,1500,39.1,25,3.7,0,1846.9,181,803,528,0,494,0.71
6/30/2010,1600,39.3,26,3.4,0,1529.5,181,665,426,0,401,0.61
6/30/2010,1700,38.8,31,4.7,0,1129.3,181,491,303,0,288,0.53
6/30/2010,1800,36.7,34,4.8,0,696.9,181,303,168,0,171,0.39
6/30/2010,1900,33.9,40,4.2,0,292.1,181,127,49,0,75,0.23
6/30/2010,2000,30.9,45,3.2,0,25.3,181,11,-40,0,-30,0.08
6/30/2010,2100,28.5,51,3.3,0,0,181,0,-47,0,-36,0.06
6/30/2010,2200,27.1,57,3.1,0,0,181,0,-46,0,-35,0.05
6/30/2010,2300,25.4,65,2.9,0,0,181,0,-44,0,-34,0.03
6/30/2010,2400,24.4,68,2.9,0,0,181,0,-44,0,-34,0.03
7/1/2010,100,22.6,78,1.3,0,0,182,0,-43,0,-40,0
7/1/2010,200,21.6,83,1.2,0,0,182,0,-42,0,-40,0
7/1/2010,300,21,84,1.2,0,0,182,0,-42,0,-40,0
7/1/2010,400,20.6,86,1,0,0,182,0,-42,0,-40,0
7/1/2010,500,20.2,87,1.3,0,9.2,182,4,-39,0,-37,0
7/1/2010,600,20.9,89,1.2,0,193.2,182,84,23,0,15,0.02
7/1/2010,700,22.6,85,1.7,0,563.5,182,245,137,0,140,0.11
7/1/2010,800,24.8,73,1.7,0,936.1,182,407,257,0,241,0.21
7/1/2010,900,27.1,63,2.1,0,1347.8,182,586,387,0,358,0.34
7/1/2010,1000,29.3,56,1.9,0,1718.1,182,747,504,0,466,0.46
7/1/2010,1100,31.5,51,1.7,0,1955,182,850,582,0,538,0.55
7/1/2010,1200,34,42,1.7,0,2113.7,182,919,629,0,582,0.64
7/1/2010,1300,35.9,35,1.9,0,1952.7,182,849,581,0,540,0.63
7/1/2010,1400,37.2,36,2.5,0,1863,182,810,553,0,514,0.64
7/1/2010,1500,37.9,35,3.6,0,1787.1,182,777,522,0,486,0.65
7/1/2010,1600,38.4,32,4.3,0,1453.6,182,632,412,0,386,0.6
7/1/2010,1700,37.9,32,4.8,0,1085.6,182,472,292,0,278,0.51
7/1/2010,1800,37.1,34,4,0,671.6,182,292,163,0,166,0.36
7/1/2010,1900,35.1,37,3.7,0,278.3,182,121,47,0,72,0.23
7/1/2010,2000,31.5,43,3.2,0,27.6,182,12,-36,0,-28,0.08
7/1/2010,2100,28.8,51,2.8,0,0,182,0,-43,0,-34,0.05
7/1/2010,2200,27.2,58,2.7,0,0,182,0,-42,0,-34,0.04
7/1/2010,2300,25.7,64,1.8,0,0,182,0,-41,0,-33,0.02
7/1/2010,2400,24.6,69,2.3,0,0,182,0,-40,0,-33,0.02
7/2/2010,100,23.9,70,1.3,0,0,183,0,-40,0,-41,0.01
7/2/2010,200,23.8,70,1.7,0,0,183,0,-41,0,-41,0.01
7/2/2010,300,23.2,72,1.2,0,0,183,0,-40,0,-40,0.01
7/2/2010,400,22.2,75,0.8,0,0,183,0,-40,0,-40,0
7/2/2010,500,22,77,1,0,6.9,183,3,-38,0,-38,0
7/2/2010,600,22.3,79,1.6,0,190.9,183,83,25,0,14,0.04
7/2/2010,700,24.6,72,2.3,0,556.6,183,242,133,0,138,0.13
7/2/2010,800,26.7,67,2.9,0,972.9,183,423,265,0,249,0.25
7/2/2010,900,28.6,61,3.4,0,1366.2,183,594,392,0,362,0.36
7/2/2010,1000,30.3,56,2.8,0,1642.2,183,714,484,0,447,0.46
7/2/2010,1100,32.9,47,2.5,0,1895.2,183,824,564,0,523,0.57
7/2/2010,1200,34.7,41,3,0,2120.6,183,922,631,0,584,0.67
7/2/2010,1300,36.2,37,3,0,2145.9,183,933,637,0,590,0.7
7/2/2010,1400,37.5,33,2.7,0,2042.4,183,888,601,0,558,0.69
7/2/2010,1500,38.6,31,1.9,0,1823.9,183,793,528,0,493,0.62
7/2/2010,1600,39.5,29,2.1,0,1513.4,183,658,425,0,399,0.55
7/2/2010,1700,39.9,29,2,0,1104,183,480,295,0,282,0.42
7/2/2010,1800,38.6,35,3.4,0,687.7,183,299,168,0,169,0.35
7/2/2010,1900,37.1,40,2.8,0,285.2,183,124,50,0,74,0.2
7/2/2010,2000,34,49,2.2,0,25.3,183,11,-35,0,-28,0.06
7/2/2010,2100,31.5,53,1.4,0,0,183,0,-43,0,-34,0.03
7/2/2010,2200,30,57,1.3,0,0,183,0,-43,0,-34,0.02
7/2/2010,2300,29,59,1.4,0,0,183,0,-42,0,-34,0.02
7/2/2010,2400,27.7,63,1.1,0,0,183,0,-42,0,-33,0.01
7/3/2010,100,26.1,69,1.1,0,0,184,0,-41,0,-44,0.01
7/3/2010,200,26.7,64,1.7,0,0,184,0,-42,0,-45,0.02
7/3/2010,300,31.1,34,5.2,0,0,184,0,-51,0,-53,0.12
7/3/2010,400,30.8,32,5.5,0,0,184,0,-52,0,-54,0.13
7/3/2010,500,30.6,30,5.5,0,6.9,184,3,-51,0,-52,0.13
7/3/2010,600,30.5,31,6.6,0,204.7,184,89,16,0,3,0.3
7/3/2010,700,31.4,30,7.1,0,591.1,184,257,123,0,138,0.39
7/3/2010,800,32.7,29,7.4,0,1014.3,184,441,257,0,250,0.51
7/3/2010,900,33.9,29,7.4,0,1421.4,184,618,389,0,366,0.61
7/3/2010,1000,35.6,26,7.2,0,1766.4,184,768,499,0,466,0.73
7/3/2010,1100,37.1,24,6.6,0,2017.1,184,877,580,0,538,0.81
7/3/2010,1200,38.4,22,5.7,0,2166.6,184,942,627,0,573,0.86
7/3/2010,1300,39.4,21,5.2,0,2175.8,184,946,629,0,582,0.87
7/3/2010,1400,40.4,19,4.6,0,2076.9,184,903,594,0,554,0.84
7/3/2010,1500,41.1,17,3.4,0,1856.1,184,807,519,0,489,0.75
7/3/2010,1600,41.6,16,2.2,0,1531.8,184,666,413,0,394,0.59
7/3/2010,1700,42.1,16,1.6,0,1117.8,184,486,283,0,278,0.43
7/3/2010,1800,41.2,21,2.6,0,701.5,184,305,159,0,168,0.36
7/3/2010,1900,39,29,3,0,292.1,184,127,45,0,73,0.24
7/3/2010,2000,36.2,35,1.8,0,23,184,10,-43,0,-32,0.07
7/3/2010,2100,33.7,40,1.7,0,0,184,0,-49,0,-38,0.05
7/3/2010,2200,31.8,45,1.8,0,0,184,0,-48,0,-37,0.05
7/3/2010,2300,31.1,47,1,0,0,184,0,-47,0,-37,0.02
7/3/2010,2400,29.4,54,1.3,0,0,184,0,-46,0,-36,0.02
7/4/2010,100,27.5,58,1.2,0,0,185,0,-45,0,-46,0.02
7/4/2010,200,27.8,63,2.2,0,0,185,0,-44,0,-45,0.03
7/4/2010,300,27.6,67,2.2,0,0,185,0,-43,0,-44,0.03
7/4/2010,400,26.9,61,1.7,0,0,185,0,-45,0,-45,0.02
7/4/2010,500,26.8,56,2.2,0,6.9,185,3,-44,0,-45,0.04
7/4/2010,600,29.7,43,3.9,0,200.1,185,87,17,0,7,0.17
7/4/2010,700,32.6,36,4.2,0,586.5,185,255,126,0,139,0.3
7/4/2010,800,35.1,31,6.4,0,1012,185,440,259,0,251,0.51
7/4/2010,900,36.6,30,6.3,0,1421.4,185,618,391,0,367,0.62
7/4/2010,1000,38.6,27,6.8,0,1777.9,185,773,505,0,468,0.78
7/4/2010,1100,40.5,24,6.2,0,2035.5,185,885,587,0,535,0.87
7/4/2010,1200,42,20,5.8,0,2164.3,185,941,625,0,573,0.94
7/4/2010,1300,43.1,16,5.8,0,2201.1,185,957,630,0,564,0.99
7/4/2010,1400,43.6,16,5.4,0,2102.2,185,914,597,0,532,0.95
7/4/2010,1500,44.4,14,5.2,0,1849.2,185,804,513,0,486,0.89
7/4/2010,1600,44.8,14,5,0,1554.8,185,676,416,0,397,0.8
7/4/2010,1700,44.9,14,4.5,0,1154.6,185,502,288,0,284,0.66
7/4/2010,1800,44.6,15,3.7,0,724.5,185,315,155,0,169,0.48
7/4/2010,1900,43.4,16,2.4,0,312.8,185,136,34,0,72,0.24
7/4/2010,2000,36.9,39,2,0,27.6,185,12,-44,0,-33,0.08
7/4/2010,2100,33.3,47,1.9,0,0,185,0,-52,0,-39,0.05
7/4/2010,2200,30.3,55,1.4,0,0,185,0,-50,0,-38,0.03
7/4/2010,2300,28.2,60,1.6,0,0,185,0,-50,0,-38,0.02
7/4/2010,2400,27.1,62,1.9,0,0,185,0,-50,0,-38,0.03
7/5/2010,100,26.3,64,1.9,0,0,186,0,-49,0,-42,0.02
7/5/2010,200,25.3,70,1.7,0,0,186,0,-48,0,-41,0.01
7/5/2010,300,24.5,74,2,0,0,186,0,-48,0,-41,0.01
7/5/2010,400,24.1,74,1.4,0,0,186,0,-48,0,-41,0.01
7/5/2010,500,23.1,76,1.1,0,6.9,186,3,-46,0,-39,0
7/5/2010,600,23.7,76,1.2,0,184,186,80,14,0,11,0.03
7/5/2010,700,26.1,71,1.6,0,556.6,186,242,133,0,137,0.13
7/5/2010,800,28.9,63,1.8,0,972.9,186,423,265,0,248,0.26
7/5/2010,900,32.2,53,1.4,0,1315.6,186,572,377,0,348,0.38
7/5/2010,1000,35.4,42,1.8,0,1676.7,186,729,489,0,454,0.53
7/5/2010,1100,37.8,36,3,0,1980.3,186,861,583,0,540,0.68
7/5/2010,1200,40.5,29,3.3,0,2086.1,186,907,615,0,573,0.78
7/5/2010,1300,41.8,26,2.9,0,2136.7,186,929,627,0,584,0.8
7/5/2010,1400,42.8,27,1.9,0,2030.9,186,883,595,0,555,0.74
7/5/2010,1500,42.8,28,3.8,0,1794,186,780,520,0,486,0.75
7/5/2010,1600,42.8,25,4,0,1490.4,186,648,417,0,393,0.67
7/5/2010,1700,41.8,27,4.3,0,1108.6,186,482,296,0,282,0.56
7/5/2010,1800,39.9,34,4.1,0,685.4,186,298,168,0,169,0.39
7/5/2010,1900,36.7,42,3.4,0,289.8,186,126,51,0,74,0.22
7/5/2010,2000,32.7,51,2.1,0,25.3,186,11,-36,0,-27,0.05
7/5/2010,2100,29.6,59,2.3,0,0,186,0,-44,0,-34,0.04
7/5/2010,2200,27.9,63,2.8,0,0,186,0,-43,0,-34,0.04
7/5/2010,2300,26.5,64,3.1,0,0,186,0,-44,0,-34,0.04
7/5/2010,2400,25.5,67,3.1,0,0,186,0,-44,0,-34,0.03
7/6/2010,100,24.2,72,2.3,0,0,187,0,-43,0,-42,0.02
7/6/2010,200,23.4,75,1.9,0,0,187,0,-43,0,-42,0.01
7/6/2010,300,22.7,78,1.5,0,0,187,0,-42,0,-41,0
7/6/2010,400,22.4,80,2,0,0,187,0,-42,0,-41,0.01
7/6/2010,500,22.2,81,1.3,0,6.9,187,3,-40,0,-39,0
7/6/2010,600,22.9,79,0.9,0,186.3,187,81,20,0,11,0.03
7/6/2010,700,24.6,75,1.9,0,563.5,187,245,134,0,138,0.12
7/6/2010,800,26.2,70,2.3,0,982.1,187,427,267,0,250,0.24
7/6/2010,900,28.2,66,2,0,1308.7,187,569,378,0,347,0.34
7/6/2010,1000,30.6,60,2,0,1642.2,187,714,486,0,447,0.45
7/6/2010,1100,33,54,1.8,0,1957.3,187,851,586,0,539,0.57
7/6/2010,1200,34.9,51,2.5,0,2104.5,187,915,635,0,583,0.64
7/6/2010,1300,36.1,48,3.2,0.1,2118.3,187,921,639,0,587,0.68
7/6/2010,1400,37.6,44,3.4,0,2017.1,187,877,604,0,557,0.69
7/6/2010,1500,37.9,41,4.2,0,1798.6,187,782,530,0,490,0.65
7/6/2010,1600,37.9,41,4.4,0,1483.5,187,645,428,0,396,0.57
7/6/2010,1700,37.1,41,4.6,0,1101.7,187,479,303,0,284,0.47
7/6/2010,1800,35.7,44,3.8,0,687.7,187,299,172,0,170,0.32
7/6/2010,1900,33.3,50,3.2,0,292.1,187,127,52,0,75,0.17
7/6/2010,2000,29.7,59,3.1,0,25.3,187,11,-36,0,-26,0.05
7/6/2010,2100,27.8,62,2.5,0,0,187,0,-45,0,-34,0.03
7/6/2010,2200,25.8,67,3.5,0,0,187,0,-44,0,-34,0.03
7/6/2010,2300,24.8,70,2.2,0,0,187,0,-44,0,-34,0.02
7/6/2010,2400,23.8,73,2.8,0,0,187,0,-44,0,-34,0.02
7/7/2010,100,23.3,74,2.8,0,0,188,0,-44,0,-40,0.02
7/7/2010,200,22.7,76,1.5,0,0,188,0,-44,0,-39,0.01
7/7/2010,300,21.8,80,1.6,0,0,188,0,-43,0,-39,0
7/7/2010,400,21.4,80,1.2,0,0,188,0,-43,0,-39,0
7/7/2010,500,20.9,82,1.5,0,4.6,188,2,-42,0,-37,0
7/7/2010,600,21.2,83,1.1,0,172.5,188,75,15,0,9,0.02
7/7/2010,700,23.5,77,1.7,0,538.2,188,234,128,0,133,0.11
7/7/2010,800,26,71,1.6,0,952.2,188,414,260,0,243,0.22
7/7/2010,900,29.2,63,1.5,1.4,1352.4,188,588,389,0,358,0.36
7/7/2010,1000,31.5,58,1.6,0,1695.1,188,737,501,0,461,0.47
7/7/2010,1100,33.7,54,2,0,1858.4,188,808,558,0,514,0.55
7/7/2010,1200,35.9,49,2,0,2051.6,188,892,619,0,570,0.64
7/7/2010,1300,37.3,45,2.7,0,2028.6,188,882,612,0,564,0.67
7/7/2010,1400,38.5,38,3.5,0,1955,188,850,582,0,540,0.7
7/7/2010,1500,39.5,34,3.3,0,1768.7,188,769,517,0,481,0.66
7/7/2010,1600,39.7,34,4.1,0,1412.2,188,614,404,0,376,0.59
7/7/2010,1700,38.5,38,3.8,0,1074.1,188,467,295,0,276,0.46
7/7/2010,1800,37.8,41,3.2,0,664.7,188,289,167,0,165,0.32
7/7/2010,1900,35.5,44,3.3,0,276,188,120,50,0,72,0.2
7/7/2010,2000,31.4,51,3.1,0,23,188,10,-35,0,-26,0.07
7/7/2010,2100,28.8,55,2.9,0,0,188,0,-42,0,-34,0.05
7/7/2010,2200,27,59,2.1,0,0,188,0,-42,0,-33,0.03
7/7/2010,2300,25.8,64,2.3,0,0,188,0,-41,0,-33,0.03
7/7/2010,2400,24.9,68,2.7,0,0,188,0,-41,0,-33,0.03
7/8/2010,100,24.1,71,3.2,0,0,189,0,-40,0,-38,0.02
7/8/2010,200,23.5,74,2.2,0,0,189,0,-40,0,-38,0.01
7/8/2010,300,22.8,77,2,0,0,189,0,-40,0,-38,0.01
7/8/2010,400,22.5,79,1.5,0,0,189,0,-40,0,-38,0
7/8/2010,500,22.4,79,1.1,0,4.6,189,2,-38,0,-36,0
7/8/2010,600,23.1,78,0.9,0,161,189,70,14,0,8,0.02
7/8/2010,700,24.8,73,1.2,0,519.8,189,226,124,0,129,0.11
7/8/2010,800,27.9,64,1,0,929.2,189,404,253,0,237,0.23
7/8/2010,900,29.6,62,1.9,0,1283.4,189,558,370,0,340,0.35
7/8/2010,1000,31.5,58,2.6,0,1635.3,189,711,484,0,445,0.47
7/8/2010,1100,33.8,52,2.2,0,1761.8,189,766,529,0,486,0.54
7/8/2010,1200,35.5,47,3.3,0,2042.4,189,888,614,0,567,0.65
7/8/2010,1300,37,44,3,0,2001,189,870,603,0,556,0.67
7/8/2010,1400,38.2,40,4.1,0,1959.6,189,852,585,0,541,0.7
7/8/2010,1500,39.5,38,4.2,0,1750.3,189,761,516,0,477,0.68
7/8/2010,1600,40.3,38,3.9,0,1444.4,189,628,417,0,385,0.59
7/8/2010,1700,39.7,38,3.8,0,1067.2,189,464,295,0,275,0.47
7/8/2010,1800,37.1,43,3.8,0,648.6,189,282,164,0,161,0.33
7/8/2010,1900,35.2,46,2.7,0,262.2,189,114,49,0,70,0.17
7/8/2010,2000,31.1,55,2.9,0,20.7,189,9,-31,0,-25,0.06
7/8/2010,2100,28.4,63,2.5,0,0,189,0,-37,0,-31,0.04
7/8/2010,2200,27.2,68,1.7,0,0,189,0,-37,0,-31,0.02
7/8/2010,2300,25.9,73,2.3,0,0,189,0,-36,0,-30,0.02
7/8/2010,2400,24.6,77,2.2,0,2.3,189,1,-35,0,-30,0.01
7/9/2010,100,23.6,81,1.8,0,2.3,190,1,-35,0,-36,0.01
7/9/2010,200,23.2,86,1,0,2.3,190,1,-34,0,-36,0
7/9/2010,300,23.3,85,1.6,0,2.3,190,1,-34,0,-36,0
7/9/2010,400,23.5,89,1.4,0,2.3,190,1,-33,0,-36,0
7/9/2010,500,22.8,88,1.3,0,6.9,190,3,-32,0,-34,0
7/9/2010,600,22.5,89,1.4,0,117.3,190,51,5,0,2,0.01
7/9/2010,700,24.4,83,2,0,510.6,190,222,124,0,128,0.11
7/9/2010,800,26.5,73,2.4,0,920,190,400,253,0,235,0.22
7/9/2010,900,28.7,67,3.2,0,1320.2,190,574,381,0,350,0.34
7/9/2010,1000,31.5,59,3.1,0,1626.1,190,707,482,0,443,0.46
7/9/2010,1100,33.9,54,3.5,0,1865.3,190,811,560,0,515,0.57
7/9/2010,1200,35.2,50,3.7,0,2014.8,190,876,608,0,560,0.64
7/9/2010,1300,36.6,47,3.8,0,2035.5,190,885,615,0,566,0.68
7/9/2010,1400,38.2,44,4.1,0,1978,190,860,594,0,547,0.7
7/9/2010,1500,39.5,41,4.3,0,1773.3,190,771,525,0,484,0.67
7/9/2010,1600,40.4,40,4.2,0,1465.1,190,637,425,0,391,0.6
7/9/2010,1700,39.6,41,4.1,0,1092.5,190,475,303,0,282,0.48
7/9/2010,1800,38.3,43,3.9,0,673.9,190,293,171,0,167,0.34
7/9/2010,1900,35.8,48,2.9,0,273.7,190,119,51,0,72,0.18
7/9/2010,2000,32.4,57,2.1,0,18.4,190,8,-33,0,-26,0.04
7/9/2010,2100,29.4,63,2.2,0,0,190,0,-40,0,-32,0.03
7/9/2010,2200,17.5,68,2.4,0,0,190,0,-39,0,-32,0.03
7/9/2010,2300,16.6,71,2,0,0,190,0,-39,0,-32,0.02
7/9/2010,2400,15.9,74,1.2,0,0,190,0,-39,0,-31,0.01
7/10/2010,100,15.3,76,1.4,0,0,191,0,-39,0,-39,0.01
7/10/2010,200,14.3,80,1.5,0,0,191,0,-38,0,-39,0
7/10/2010,300,13.9,81,1,0,0,191,0,-38,0,-39,0
7/10/2010,400,13.6,82,1,0,0,191,0,-38,0,-39,0
7/10/2010,500,13.1,85,1.2,0,4.6,191,2,-36,0,-37,0
7/10/2010,600,13.6,83,1.2,0,167.9,191,73,18,0,8,0.02
7/10/2010,700,16.4,76,1.3,0,535.9,191,233,129,0,132,0.12
7/10/2010,800,18.6,70,1.6,0,961.4,191,418,263,0,245,0.24
7/10/2010,900,21.9,63,1.4,0,1366.2,191,594,395,0,361,0.38
7/10/2010,1000,25.4,56,2.1,0,1692.8,191,736,504,0,460,0.52
7/10/2010,1100,27.1,52,2.6,0,1964.2,191,854,592,0,541,0.63
7/10/2010,1200,29.5,46,3.2,0,2035.5,191,885,617,0,566,0.71
7/10/2010,1300,31,40,3.4,0,2063.1,191,897,622,0,573,0.76
7/10/2010,1400,33.1,33,3.8,0,2005.6,191,872,597,0,552,0.8
7/10/2010,1500,34.3,27,3.9,0,1800.9,191,783,522,0,487,0.78
7/10/2010,1600,35,28,3.7,0,1492.7,191,649,424,0,395,0.68
7/10/2010,1700,36.1,18,4.1,0,1124.7,191,489,289,0,281,0.63
7/10/2010,1800,34.8,23,3.2,0,701.5,191,305,163,0,169,0.42
7/10/2010,1900,30.1,40,2.6,0,299,191,130,52,0,75,0.2
7/10/2010,2000,24.9,51,2.6,0,23,191,10,-39,0,-29,0.07
7/10/2010,2100,20.7,60,3,0,0,191,0,-46,0,-35,0.05
7/10/2010,2200,18.5,65,2.5,0,0,191,0,-46,0,-35,0.03
7/10/2010,2300,17.3,67,2.6,0,0,191,0,-46,0,-35,0.03
7/10/2010,2400,15.6,74,2.2,0,0,191,0,-45,0,-35,0.02
7/11/2010,100,14.7,78,1.9,0,0,192,0,-45,0,-40,0.01
7/11/2010,200,14.1,80,1.6,0,0,192,0,-45,0,-40,0
7/11/2010,300,13.4,82,2.3,0,0,192,0,-45,0,-40,0.01
7/11/2010,400,13.2,82,1.6,0,0,192,0,-45,0,-40,0
7/11/2010,500,13,82,1.1,0,4.6,192,2,-43,0,-39,0
7/11/2010,600,13.4,82,1.2,0,170.2,192,74,12,0,7,0.03
7/11/2010,700,16.1,73,0.9,0,545.1,192,237,129,0,133,0.12
7/11/2010,800,19.3,63,0.9,0,966,192,420,262,0,245,0.25
7/11/2010,900,21.9,57,1,0,1347.8,192,586,387,0,356,0.38
7/11/2010,1000,24.3,52,1.7,0,1639.9,192,713,484,0,445,0.5
7/11/2010,1100,27,44,1.4,0,1915.9,192,833,571,0,527,0.61
7/11/2010,1200,29.8,35,2.2,0,2111.4,192,918,628,0,580,0.73
7/11/2010,1300,31.6,31,2.1,0,2127.5,192,925,631,0,584,0.76
7/11/2010,1400,33.5,25,1.6,0,2033.2,192,884,593,0,553,0.73
7/11/2010,1500,33.8,30,3.1,0,1791.7,192,779,523,0,486,0.72
7/11/2010,1600,33.4,32,3.4,0,1472,192,640,422,0,391,0.63
7/11/2010,1700,33.3,33,3.2,0,1087.9,192,473,299,0,279,0.5
7/11/2010,1800,32.3,37,3,0,669.3,192,291,169,0,165,0.35
7/11/2010,1900,29.1,43,3.2,0,271.4,192,118,50,0,71,0.21
7/11/2010,2000,24.6,50,2.7,0,20.7,192,9,-34,0,-26,0.07
7/11/2010,2100,21.7,56,2,0,0,192,0,-40,0,-33,0.04
7/11/2010,2200,19.5,59,2.2,0,0,192,0,-41,0,-33,0.04
7/11/2010,2300,18.1,63,2.6,0,0,192,0,-40,0,-32,0.04
7/11/2010,2400,17.2,67,2.2,0,0,192,0,-40,0,-32,0.03
7/12/2010,100,15.9,72,2.4,0,0,193,0,-39,0,-40,0.02
7/12/2010,200,15.1,75,2.7,0,0,193,0,-39,0,-40,0.02
7/12/2010,300,14.4,77,2.8,0,0,193,0,-39,0,-40,0.02
7/12/2010,400,13.9,79,2.5,0,0,193,0,-39,0,-40,0.01
7/12/2010,500,13.7,80,2,0,4.6,193,2,-37,0,-38,0.01
7/12/2010,600,13.9,79,2,0,165.6,193,72,17,0,7,0.04
7/12/2010,700,15.8,73,2.9,0,533.6,193,232,126,0,130,0.14
7/12/2010,800,18.9,64,2.4,0,949.9,193,413,258,0,240,0.26
7/12/2010,900,21.1,58,2.1,0,1329.4,193,578,381,0,351,0.38
7/12/2010,1000,22.9,54,2.6,0,1644.5,193,715,485,0,446,0.49
7/12/2010,1100,23.8,52,3.6,0,1906.7,193,829,570,0,526,0.58
7/12/2010,1200,25.2,48,3.3,0,2067.7,193,899,622,0,573,0.65
7/12/2010,1300,26.9,43,3.5,0,2047,193,890,615,0,568,0.69
7/12/2010,1400,28.4,41,3.9,0,1945.8,193,846,582,0,538,0.7
7/12/2010,1500,29.1,40,4.4,0,1764.1,193,767,521,0,481,0.67
7/12/2010,1600,29.8,37,4.2,0,1453.6,193,632,418,0,387,0.6
7/12/2010,1700,30.2,34,3.8,0,1078.7,193,469,294,0,276,0.5
7/12/2010,1800,28.5,39,3.9,0,662.4,193,288,165,0,163,0.36
7/12/2010,1900,24.3,47,4.4,0,271.4,193,118,48,0,70,0.22
7/12/2010,2000,20.8,54,4.3,0,20.7,193,9,-35,0,-27,0.07
7/12/2010,2100,19.4,55,4,0,0,193,0,-43,0,-34,0.06
7/12/2010,2200,18.5,57,4.2,0,0,193,0,-42,0,-33,0.06
7/12/2010,2300,17.8,59,3.9,0,0,193,0,-42,0,-33,0.05
7/12/2010,2400,17.5,60,3.3,0,0,193,0,-42,0,-33,0.05
7/13/2010,100,16.8,61,3.8,0,0,194,0,-42,0,-40,0.05
7/13/2010,200,16.2,61,3.6,0,0,194,0,-42,0,-40,0.04
7/13/2010,300,15.4,66,3.9,0,0,194,0,-42,0,-40,0.04
7/13/2010,400,15,70,3.6,0,0,194,0,-41,0,-39,0.03
7/13/2010,500,14.5,73,3.1,0,4.6,194,2,-39,0,-38,0.02
7/13/2010,600,14.9,74,3.1,0,156.4,194,68,13,0,5,0.06
7/13/2010,700,16.9,70,2.2,0,517.5,194,225,122,0,127,0.14
7/13/2010,800,18.5,65,2,0,931.5,194,405,253,0,236,0.25
7/13/2010,900,19.9,63,1.8,0,1331.7,194,579,383,0,351,0.36
7/13/2010,1000,21.6,59,1.8,0,1649.1,194,717,488,0,448,0.46
7/13/2010,1100,24.1,53,0.4,0,1877.95,194,816.5,563,0,515,0.55
7/13/2010,1200,25,50,1.9,0,2106.8,194,916,634,0,582,0.64
7/13/2010,1300,26.4,48,2.6,0,2060.8,194,896,622,0,573,0.66
7/13/2010,1400,27.4,42,3.3,0,2063.1,194,897,615,0,563,0.7
7/13/2010,1500,28.3,37,4,0,1837.7,194,799,537,0,496,0.67
7/13/2010,1600,28.9,35,4.1,0,1518,194,660,432,0,401,0.6
7/13/2010,1700,29.1,35,3.6,0,1117.8,194,486,303,0,285,0.48
7/13/2010,1800,27.8,40,4,0,680.8,194,296,169,0,167,0.35
7/13/2010,1900,25.6,46,3.6,0,266.8,194,116,48,0,69,0.2
7/13/2010,2000,22.4,54,2.9,0,18.4,194,8,-34,0,-27,0.06
7/13/2010,2100,19.5,63,2.9,0,0,194,0,-39,0,-32,0.04
7/13/2010,2200,18.5,61,2.1,0,0,194,0,-41,0,-32,0.03
7/13/2010,2300,17.7,59,1.9,0,0,194,0,-42,0,-33,0.03
7/13/2010,2400,17.3,60,2,0,0,194,0,-41,0,-33,0.03
7/14/2010,100,16.6,61,2.1,0,0,195,0,-42,0,-44,0.03
7/14/2010,200,16.3,62,1.7,0,0,195,0,-41,0,-44,0.02
7/14/2010,300,15.5,65,1,0,0,195,0,-41,0,-44,0.01
7/14/2010,400,14.7,70,1.3,0,0,195,0,-40,0,-43,0.01
7/14/2010,500,14,73,1.2,0,4.6,195,2,-38,0,-42,0
7/14/2010,600,14.8,75,1.2,0,163.3,195,71,16,0,3,0.03
7/14/2010,700,17.2,70,1.3,0,549.7,195,239,128,0,133,0.13
7/14/2010,800,19.4,61,2.1,0,989,195,430,266,0,248,0.27
7/14/2010,900,20.9,56,2.1,0,1403,195,610,399,0,365,0.39
7/14/2010,1000,23.2,49,1.9,0,1759.5,195,765,514,0,468,0.52
7/14/2010,1100,25.6,41,2,0,1989.5,195,865,587,0,540,0.62
7/14/2010,1200,28.4,34,1.9,0,2155.1,195,937,637,0,565,0.71
7/14/2010,1300,29.8,34,2.3,0,2185,195,950,649,0,575,0.75
7/14/2010,1400,31.3,26,2.4,0,2099.9,195,913,612,0,543,0.76
7/14/2010,1500,32.3,24,2.7,0,1881.4,195,818,537,0,494,0.72
7/14/2010,1600,32.8,18,3.1,0,1568.6,195,682,425,0,400,0.66
7/14/2010,1700,32.6,19,3.1,0,1163.8,195,506,297,0,287,0.53
7/14/2010,1800,31.6,21,2.8,0,717.6,195,312,160,0,169,0.37
7/14/2010,1900,29.3,30,2.5,0,285.2,195,124,41,0,70,0.21
7/14/2010,2000,25.8,42,2.1,0,18.4,195,8,-43,0,-31,0.07
7/14/2010,2100,23.3,47,1,0,0,195,0,-48,0,-36,0.02
7/14/2010,2200,22.2,49,1.1,0,0,195,0,-48,0,-36,0.03
7/14/2010,2300,20.3,54,1.5,0,0,195,0,-47,0,-36,0.03
7/14/2010,2400,19,56,1.5,0,0,195,0,-47,0,-36,0.03
7/15/2010,100,17.8,57,1.2,0,0,196,0,-47,0,-46,0.02
7/15/2010,200,17.3,56,1.4,0,0,196,0,-48,0,-46,0.02
7/15/2010,300,16.3,57,1.3,0,0,196,0,-48,0,-46,0.02
7/15/2010,400,15.6,60,0.9,0,0,196,0,-48,0,-46,0.01
7/15/2010,500,15.3,63,0.8,0,2.3,196,1,-46,0,-44,0
7/15/2010,600,16.4,59,1,0,158.7,196,69,6,0,-1,0.03
7/15/2010,700,19.3,53,1.4,0,549.7,196,239,122,0,130,0.15
7/15/2010,800,22.5,46,1.9,0,991.3,196,431,260,0,245,0.31
7/15/2010,900,25.8,38,2,0,1405.3,196,611,392,0,362,0.46
7/15/2010,1000,28.8,34,1.7,0,1720.4,196,748,496,0,459,0.58
7/15/2010,1100,30.6,30,2.1,0,1945.8,196,846,569,0,529,0.69
7/15/2010,1200,32.2,27,1.9,0,2053.9,196,893,604,0,563,0.74
7/15/2010,1300,32.8,26,2.1,0,2063.1,196,897,607,0,567,0.76
7/15/2010,1400,35.3,24,1.9,0,2060.8,196,896,601,0,556,0.77
7/15/2010,1500,36.2,22,2.1,0,1837.7,196,799,526,0,490,0.72
7/15/2010,1600,36.4,24,2.7,0,1506.5,196,655,422,0,395,0.65
7/15/2010,1700,36.3,26,2.9,0,1101.7,196,479,296,0,280,0.53
7/15/2010,1800,35.1,26,3.4,0,673.9,196,293,160,0,163,0.42
7/15/2010,1900,33,29,3.3,0,266.8,196,116,26,0,67,0.28
7/15/2010,2000,28,40,2.7,0,18.4,196,8,-52,0,-29,0.1
7/15/2010,2100,24.3,48,1.7,0,0,196,0,-57,0,-34,0.05
7/15/2010,2200,21.5,56,1.8,0,0,196,0,-55,0,-33,0.04
7/15/2010,2300,20.3,58,1.6,0,0,196,0,-55,0,-33,0.03
7/15/2010,2400,19.1,65,1.6,0,0,196,0,-53,0,-32,0.02
7/16/2010,100,17.5,76,1.4,0,0,197,0,-51,0,-39,0.01
7/16/2010,200,16.8,79,0.9,0,0,197,0,-50,0,-39,0
7/16/2010,300,16,80,0.4,0,0,197,0,-51,0,-39,0
7/16/2010,400,15.6,81,0.4,0,0,197,0,-51,0,-39,0
7/16/2010,500,15,85,0.4,0,2.3,197,1,-49,0,-38,0
7/16/2010,600,15.2,84,0.4,0,163.3,197,71,4,0,7,0.02
7/16/2010,700,16.4,84,0.4,0,524.4,197,228,126,0,128,0.11
7/16/2010,800,20.3,65,0.4,0,954.5,197,415,260,0,241,0.24
7/16/2010,900,24.1,54,0.4,0,1380,197,600,395,0,361,0.39
7/16/2010,1000,26.9,47,0.4,0,1623.8,197,706,479,0,440,0.49
7/16/2010,1100,30,39,0.4,0,1987.2,197,864,590,0,539,0.63
7/16/2010,1200,31.8,35,0.4,0,2118.3,197,921,632,0,580,0.69
7/16/2010,1300,33.6,31,0.4,0,2152.8,197,936,640,0,587,0.72
7/16/2010,1400,35.7,29,0.4,0,2049.3,197,891,607,0,558,0.7
7/16/2010,1500,35.8,30,0.4,0,1826.2,197,794,535,0,494,0.62
7/16/2010,1600,35.9,29,0.4,0,1492.7,197,649,426,0,394,0.5
7/16/2010,1700,34.2,36,0.4,0,1094.8,197,476,304,0,281,0.36
7/16/2010,1800,31.2,37,0.4,0,648.6,197,282,162,0,159,0.2
7/16/2010,1900,28,42,0.4,0,255.3,197,111,31,0,66,0.07
7/16/2010,2000,24.7,48,0.4,0,16.1,197,7,-48,0,-27,0
7/16/2010,2100,21.5,55,0.4,0,0,197,0,-53,0,-32,0
7/16/2010,2200,19.7,61,0.4,0,0,197,0,-52,0,-31,0
7/16/2010,2300,18.4,63,0.4,0,0,197,0,-52,0,-31,0
7/16/2010,2400,17.2,66,0.4,0,0,197,0,-52,0,-31,0
7/17/2010,100,16.3,70,0.4,0,0,198,0,-51,0,-43,0
7/17/2010,200,15.6,73,0.4,0,0,198,0,-51,0,-42,0
7/17/2010,300,15.1,75,0.4,0,0,198,0,-50,0,-42,0
7/17/2010,400,14.8,76,0.4,0,0,198,0,-50,0,-42,0
7/17/2010,500,14.4,78,0.4,0,2.3,198,1,-49,0,-41,0
7/17/2010,600,14.7,78,0.4,0,151.8,198,66,1,0,0,0.01
7/17/2010,700,16.9,70,0.4,0,535.9,198,233,123,0,129,0.11
7/17/2010,800,19.2,65,0.4,0,963.7,198,419,260,0,242,0.24
7/17/2010,900,21.3,63,0.4,0,1380,198,600,397,0,362,0.37
7/17/2010,1000,23.8,58,0.4,0,1679,198,730,498,0,455,0.48
7/17/2010,1100,25.4,54,0.4,0,1904.4,198,828,573,0,525,0.57
7/17/2010,1200,27.4,48,0.4,0,2125.2,198,924,641,0,584,0.66
7/17/2010,1300,29.4,44,0.4,0,2141.3,198,931,646,0,589,0.68
7/17/2010,1400,31.2,37,0.4,0,2047,198,890,610,0,560,0.66
7/17/2010,1500,32.7,32,0.4,0,1830.8,198,796,535,0,494,0.6
7/17/2010,1600,33.6,32,0.4,0,1504.2,198,654,430,0,397,0.49
7/17/2010,1700,33.2,33,0.4,0,1106.3,198,481,302,0,282,0.35
7/17/2010,1800,31.2,38,0.4,0,671.6,198,292,168,0,165,0.2
7/17/2010,1900,28.8,44,0.4,0,264.5,198,115,33,0,34,0.07
7/17/2010,2000,25.5,51,0.4,0,16.1,198,7,-49,0,-36,0
7/17/2010,2100,22.4,57,0.4,0,0,198,0,-54,0,-41,0
7/17/2010,2200,20.5,61,0.4,0,0,198,0,-54,0,-41,0
7/17/2010,2300,18.8,66,0.4,0,0,198,0,-53,0,-40,0
7/17/2010,2400,17.6,70,0.4,0,0,198,0,-53,0,-40,0
7/18/2010,100,16.8,71,0.4,0,0,199,0,-53,0,-44,0
7/18/2010,200,16.4,72,0.4,0,0,199,0,-53,0,-44,0
7/18/2010,300,15.5,76,0.4,0,0,199,0,-53,0,-43,0
7/18/2010,400,14.7,79,0.4,0,0,199,0,-52,0,-43,0
7/18/2010,500,14.4,80,0.4,0,2.3,199,1,-52,0,-42,0
7/18/2010,600,14.7,79,0.4,0,158.7,199,69,1,0,1,0.02
7/18/2010,700,16.9,72,0.4,0,545.1,199,237,125,0,130,0.11
7/18/2010,800,20.9,61,0.4,0,982.1,199,427,264,0,245,0.25
7/18/2010,900,23.7,56,0.4,0,1407.6,199,612,403,0,365,0.39
7/18/2010,1000,26.4,52,0.4,0,1764.1,199,767,521,0,467,0.53
7/18/2010,1100,28.5,48,0.4,0,2019.4,199,878,606,0,531,0.63
7/18/2010,1200,30.6,44,0.4,0,2162,199,940,654,0,575,0.7
7/18/2010,1300,32.9,38,0.4,0,2150.5,199,935,648,0,590,0.72
7/18/2010,1400,34.3,34,0.4,0,2088.4,199,908,623,0,548,0.7
7/18/2010,1500,35,28,0.4,0,1883.7,199,819,547,0,494,0.63
7/18/2010,1600,35.7,25,0.4,0,1554.8,199,676,435,0,403,0.51
7/18/2010,1700,35.7,27,0.4,0,1143.1,199,497,306,0,287,0.37
7/18/2010,1800,34.3,29,0.4,0,694.6,199,302,166,0,167,0.22
7/18/2010,1900,31.1,34,0.4,0,273.7,199,119,27,0,31,0.08
7/18/2010,2000,26.7,40,0.4,0,16.1,199,7,-58,0,-41,0
7/18/2010,2100,23.3,46,0.4,0,0,199,0,-62,0,-46,0
7/18/2010,2200,20.1,56,0.4,0,0,199,0,-60,0,-45,0
7/18/2010,2300,18.3,61,0.4,0,0,199,0,-59,0,-44,0
7/18/2010,2400,16.9,68,0.4,0,0,199,0,-57,0,-43,0
7/19/2010,100,16,70,0.4,0,0,200,0,-57,0,-46,0
7/19/2010,200,15.5,73,0.4,0,0,200,0,-57,0,-46,0
7/19/2010,300,14.6,77,0.4,0,0,200,0,-56,0,-45,0
7/19/2010,400,14.4,78,0.4,0,0,200,0,-56,0,-45,0
7/19/2010,500,13.7,81,0.4,0,2.3,200,1,-55,0,-44,0
7/19/2010,600,14.1,78,0.4,0,158.7,200,69,-3,0,-1,0.01
7/19/2010,700,16.4,72,0.4,0,552,200,240,126,0,130,0.11
7/19/2010,800,18.6,66,0.4,0,995.9,200,433,267,0,247,0.24
7/19/2010,900,22.2,55,0.4,0,1419.1,200,617,403,0,365,0.39
7/19/2010,1000,25,48,0.4,0,1612.3,200,701,474,0,436,0.47
7/19/2010,1100,27.8,42,0.4,0,2001,200,870,594,0,537,0.62
7/19/2010,1200,30.6,33,0.4,0,2175.8,200,946,646,0,573,0.7
7/19/2010,1300,32.5,28,0.4,0,2196.5,200,955,648,0,576,0.72
7/19/2010,1400,33.8,29,1.8,0,2086.1,200,907,614,0,543,0.76
7/19/2010,1500,34.2,29,3.1,0,1858.4,200,808,540,0,496,0.75
7/19/2010,1600,34.2,26,3,0,1547.9,200,673,433,0,402,0.65
7/19/2010,1700,33.6,28,3.6,0,1152.3,200,501,307,0,289,0.55
7/19/2010,1800,30.8,32,4.3,0,713,200,310,169,0,170,0.42
7/19/2010,1900,27.3,40,3.5,0,278.3,200,121,27,0,31,0.22
7/19/2010,2000,22.6,51,2.6,0,13.8,200,6,-58,0,-43,0.06
7/19/2010,2100,18.8,62,2.1,0,0,200,0,-61,0,-46,0.03
7/19/2010,2200,16.7,68,2.6,0,0,200,0,-60,0,-45,0.03
7/19/2010,2300,15.6,71,2.3,0,0,200,0,-60,0,-45,0.02
7/19/2010,2400,14.4,76,1.7,0,0,200,0,-59,0,-45,0.01
7/20/2010,100,13.8,78,1.7,0,0,201,0,-59,0,-43,0.01
7/20/2010,200,13.1,81,1.4,0,0,201,0,-59,0,-43,0
7/20/2010,300,13.3,81,1,0,0,201,0,-58,0,-43,0
7/20/2010,400,12.7,83,1,0,0,201,0,-58,0,-42,0
7/20/2010,500,12.5,83,0.9,0,2.3,201,1,-58,0,-42,0
7/20/2010,600,12.6,83,0.7,0,154.1,201,67,-7,0,1,0.02
7/20/2010,700,14.9,77,1.4,0,531.3,201,231,122,0,126,0.11
7/20/2010,800,17.3,69,1.2,0,975.2,201,424,262,0,243,0.23
7/20/2010,900,19.8,64,1.4,0,1398.4,201,608,400,0,363,0.37
7/20/2010,1000,21.9,61,1.8,0,1787.1,201,777,528,0,459,0.5
7/20/2010,1100,23.9,55,2.5,0,2012.5,201,875,603,0,529,0.59
7/20/2010,1200,25.5,50,2.5,0,2155.1,201,937,649,0,572,0.67
7/20/2010,1300,27,45,3.4,0,2173.5,201,945,653,0,577,0.71
7/20/2010,1400,28.9,39,3.9,0,2079.2,201,904,618,0,555,0.74
7/20/2010,1500,29.9,34,3.9,0,1860.7,201,809,542,0,496,0.71
7/20/2010,1600,30.1,34,4.3,0,1529.5,201,665,434,0,401,0.63
7/20/2010,1700,29,39,4.8,0,1115.5,201,485,305,0,283,0.51
7/20/2010,1800,26.8,43,4.3,0,630.2,201,274,157,0,154,0.34
7/20/2010,1900,24.1,48,3.1,0,236.9,201,103,26,0,29,0.16
7/20/2010,2000,20.2,57,2.9,0,13.8,201,6,-47,0,-34,0.05
7/20/2010,2100,17.7,63,3.4,0,0,201,0,-51,0,-38,0.04
7/20/2010,2200,16.2,69,3.1,0,0,201,0,-50,0,-38,0.03
7/20/2010,2300,15.1,74,2.4,0,0,201,0,-50,0,-37,0.02
7/20/2010,2400,14.1,79,2.1,0,0,201,0,-49,0,-37,0.01
7/21/2010,100,13.3,82,2.6,0,0,202,0,-49,0,-39,0.01
7/21/2010,200,13.2,80,3.3,0,0,202,0,-49,0,-39,0.01
7/21/2010,300,13.1,79,3,0,0,202,0,-50,0,-39,0.01
7/21/2010,400,12.6,83,1.4,0,0,202,0,-49,0,-39,0
7/21/2010,500,12.1,86,1.4,0,2.3,202,1,-48,0,-38,0
7/21/2010,600,12.2,87,1.7,0,135.7,202,59,-3,0,-1,0.01
7/21/2010,700,13.9,80,2.1,0,499.1,202,217,115,0,120,0.1
7/21/2010,800,16.5,71,1.9,0,933.8,202,406,252,0,234,0.22
7/21/2010,900,19.1,65,1.5,0,1327.1,202,577,380,0,348,0.34
7/21/2010,1000,20.8,61,2.5,0,1731.9,202,753,510,0,463,0.47
7/21/2010,1100,21.8,58,3,0,1996.4,202,868,597,0,538,0.56
7/21/2010,1200,22.5,54,3.6,0,2139,202,930,642,0,578,0.61
7/21/2010,1300,23.3,51,3.5,0,2159.7,202,939,648,0,587,0.64
7/21/2010,1400,25.1,47,3.4,0,2056.2,202,894,614,0,560,0.65
7/21/2010,1500,25.4,44,4.4,0,1826.2,202,794,537,0,493,0.62
7/21/2010,1600,25.7,44,4.7,0,1499.6,202,652,430,0,396,0.54
7/21/2010,1700,25,45,4.6,0,1087.9,202,473,298,0,277,0.43
7/21/2010,1800,23.7,47,4.3,0,669.3,202,291,165,0,162,0.3
7/21/2010,1900,20.9,54,3.6,0,248.4,202,108,25,0,29,0.15
7/21/2010,2000,17.2,66,3.1,0,13.8,202,6,-51,0,-38,0.04
7/21/2010,2100,15.3,71,2.4,0,0,202,0,-56,0,-41,0.02
7/21/2010,2200,14.6,73,1.6,0,0,202,0,-55,0,-41,0.01
7/21/2010,2300,13.4,77,1,0,0,202,0,-55,0,-41,0
7/21/2010,2400,12.8,78,1,0,0,202,0,-55,0,-41,0
7/22/2010,100,12,81,0.9,0,0,203,0,-55,0,-44,0
7/22/2010,200,11.2,83,0.9,0,0,203,0,-55,0,-44,0
7/22/2010,300,10.9,84,0.9,0,0,203,0,-55,0,-44,0
7/22/2010,400,10.5,83,0.9,0,0,203,0,-55,0,-44,0
7/22/2010,500,10.3,85,1.2,0,2.3,203,1,-54,0,-43,0
7/22/2010,600,11,85,1,0,142.6,203,62,-7,0,-4,0.01
7/22/2010,700,13,81,1.3,0,529,203,230,120,0,125,0.1
7/22/2010,800,16.1,71,0.9,0,966,203,420,259,0,240,0.22
7/22/2010,900,18.6,66,1.6,0,1386.9,203,603,396,0,360,0.35
7/22/2010,1000,21.3,60,1.5,0,1745.7,203,759,514,0,463,0.48
7/22/2010,1100,24.3,53,2,0,2005.6,203,872,599,0,525,0.6
7/22/2010,1200,26.7,46,2,0,2150.5,203,935,646,0,569,0.68
7/22/2010,1300,28.3,43,2.9,0,2171.2,203,944,652,0,575,0.73
7/22/2010,1400,29.6,39,3.4,0,2074.6,203,902,617,0,555,0.74
7/22/2010,1500,30.7,34,3.5,0,1858.4,203,808,542,0,495,0.7
7/22/2010,1600,31.6,31,3.7,0,1538.7,203,669,434,0,401,0.64
7/22/2010,1700,31.9,29,4.2,0,1131.6,203,492,301,0,283,0.55
7/22/2010,1800,30.3,34,3.8,0,667,203,290,160,0,160,0.38
7/22/2010,1900,28,40,3.2,0,248.4,203,108,23,0,27,0.21
7/22/2010,2000,24.1,49,3,0,11.5,203,5,-54,0,-39,0.08
7/22/2010,2100,20.3,60,2.3,0,0,203,0,-56,0,-42,0.04
7/22/2010,2200,18.1,64,2.6,0,0,203,0,-56,0,-42,0.03
7/22/2010,2300,16.7,67,2.3,0,0,203,0,-56,0,-42,0.03
7/22/2010,2400,16.1,69,1.9,0,0,203,0,-56,0,-41,0.02
7/23/2010,100,14.9,74,1.3,0,0,204,0,-55,0,-42,0.01
7/23/2010,200,14.5,74,1.6,0,0,204,0,-55,0,-43,0.01
7/23/2010,300,13.6,77,1.8,0,0,204,0,-55,0,-42,0.01
7/23/2010,400,13.2,78,1.4,0,0,204,0,-55,0,-42,0
7/23/2010,500,12.8,80,0.8,0,2.3,204,1,-54,0,-41,0
7/23/2010,600,12.9,80,1,0,131.1,204,57,-11,0,-6,0.01
7/23/2010,700,15,75,1.3,0,512.9,204,223,116,0,122,0.11
7/23/2010,800,17.5,69,1.5,0,954.5,204,415,256,0,237,0.23
7/23/2010,900,19.7,62,1.6,0,1375.4,204,598,392,0,356,0.36
7/23/2010,1000,21.8,58,2,0,1729.6,204,752,509,0,461,0.49
7/23/2010,1100,24.4,52,2.1,0,1994.1,204,867,595,0,535,0.6
7/23/2010,1200,27,46,2,0,2150.5,204,935,646,0,570,0.68
7/23/2010,1300,29.6,38,1.7,0,2182.7,204,949,653,0,577,0.73
7/23/2010,1400,31.3,36,2.3,0,2070,204,900,615,0,555,0.74
7/23/2010,1500,32.1,36,3.2,0,1842.3,204,801,542,0,494,0.71
7/23/2010,1600,32.5,32,3,0,1522.6,204,662,432,0,398,0.61
7/23/2010,1700,32.9,31,3.2,0,1117.8,204,486,301,0,281,0.51
7/23/2010,1800,31.1,35,3.5,0,637.1,204,277,156,0,154,0.36
7/23/2010,1900,28.5,41,2.8,0,262.2,204,114,32,0,34,0.2
7/23/2010,2000,24.4,49,1.8,0,11.5,204,5,-50,0,-36,0.05
7/23/2010,2100,20.2,59,1.7,0,0,204,0,-53,0,-40,0.03
7/23/2010,2200,18.1,64,2.2,0,0,204,0,-53,0,-39,0.03
7/23/2010,2300,16.8,67,2,0,0,204,0,-53,0,-39,0.02
7/23/2010,2400,15.8,70,1.9,0,0,204,0,-52,0,-39,0.02
7/24/2010,100,14.5,72,1.6,0,0,205,0,-53,0,-43,0.01
7/24/2010,200,14.2,72,1.9,0,0,205,0,-53,0,-43,0.01
7/24/2010,300,13.5,75,1.6,0,0,205,0,-52,0,-43,0.01
7/24/2010,400,12.8,76,0.7,0,0,205,0,-53,0,-43,0
7/24/2010,500,12.8,77,0.8,0,2.3,205,1,-52,0,-42,0
7/24/2010,600,13,78,1.1,0,128.8,205,56,-9,0,-7,0.01
7/24/2010,700,15.6,71,1.3,0,508.3,205,221,114,0,120,0.11
7/24/2010,800,18.9,62,1.4,0,945.3,205,411,252,0,234,0.24
7/24/2010,900,22,52,1.2,0,1363.9,205,593,385,0,352,0.38
7/24/2010,1000,24.9,43,1.4,0,1715.8,205,746,497,0,455,0.52
7/24/2010,1100,28,39,1.7,0,1941.2,205,844,573,0,528,0.63
7/24/2010,1200,29.7,38,2.2,0,2104.5,205,915,628,0,575,0.72
7/24/2010,1300,31,36,2.7,0,2122.9,205,923,634,0,581,0.76
7/24/2010,1400,31.9,33,3.7,0,2024,205,880,599,0,551,0.79
7/24/2010,1500,32.7,28,4.1,0,1796.3,205,781,519,0,482,0.76
7/24/2010,1600,33.1,29,4.3,0,1400.7,205,609,397,0,368,0.66
7/24/2010,1700,32.9,31,4.4,0,1041.9,205,453,282,0,264,0.55
7/24/2010,1800,30.2,35,4.6,0,625.6,205,272,152,0,151,0.4
7/24/2010,1900,26.7,40,4.1,0,234.6,205,102,22,0,26,0.23
7/24/2010,2000,22.6,50,2,0,11.5,205,5,-50,0,-37,0.05
7/24/2010,2100,19.9,58,2,0,0,205,0,-53,0,-39,0.03
7/24/2010,2200,18,62,2,0,0,205,0,-53,0,-39,0.03
7/24/2010,2300,16.9,62,2.3,0,0,205,0,-53,0,-39,0.03
7/24/2010,2400,15.4,68,2.8,0,0,205,0,-52,0,-39,0.03
7/25/2010,100,14.5,71,2.9,0,0,206,0,-52,0,-38,0.02
7/25/2010,200,13.8,73,2.6,0,0,206,0,-52,0,-38,0.02
7/25/2010,300,13,77,1.5,0,0,206,0,-51,0,-38,0.01
7/25/2010,400,12.4,79,1.4,0,0,206,0,-51,0,-37,0
7/25/2010,500,12.4,78,0.7,0,0,206,0,-51,0,-37,0
7/25/2010,600,12.6,79,1.4,0,103.5,206,45,-16,0,-9,0.01
7/25/2010,700,14.1,75,1.4,0,462.3,206,201,105,0,111,0.1
7/25/2010,800,17.1,65,1.1,0,929.2,206,404,247,0,230,0.22
7/25/2010,900,20.2,58,1.2,0,1352.4,206,588,384,0,350,0.36
7/25/2010,1000,22.6,55,1.5,0,1704.3,206,741,500,0,455,0.49
7/25/2010,1100,24,53,2.7,0,1959.6,206,852,585,0,533,0.59
7/25/2010,1200,25.3,47,2.8,0,2102.2,206,914,630,0,575,0.66
7/25/2010,1300,27.7,41,3.1,0,2120.6,206,922,634,0,581,0.72
7/25/2010,1400,29.6,36,3.4,0,2014.8,206,876,597,0,550,0.73
7/25/2010,1500,30.1,36,4.2,0,1787.1,206,777,523,0,482,0.7
7/25/2010,1600,30.2,37,4.4,0,1439.8,206,626,413,0,380,0.61
7/25/2010,1700,28.8,39,4.5,0,1039.6,206,452,285,0,264,0.48
7/25/2010,1800,27.8,39,4.1,0,609.5,206,265,149,0,147,0.35
7/25/2010,1900,24.8,43,4.1,0,230,206,100,22,0,26,0.21
7/25/2010,2000,21,49,3.7,0,11.5,206,5,-50,0,-37,0.08
7/25/2010,2100,18.3,55,3.2,0,0,206,0,-53,0,-39,0.05
7/25/2010,2200,16.5,62,3.9,0,0,206,0,-52,0,-39,0.05
7/25/2010,2300,15.7,64,3.6,0,0,206,0,-52,0,-38,0.04
7/25/2010,2400,14.8,69,2,0,0,206,0,-51,0,-38,0.02
7/26/2010,100,13.7,75,2.6,0,0,207,0,-50,0,-42,0.02
7/26/2010,200,13.5,76,3.3,0,0,207,0,-50,0,-42,0.02
7/26/2010,300,13.3,77,3,0,0,207,0,-49,0,-42,0.02
7/26/2010,400,12.8,80,2,0,0,207,0,-49,0,-41,0.01
7/26/2010,500,12.3,81,0.8,0,0,207,0,-49,0,-41,0
7/26/2010,600,12.8,79,0.7,0,121.9,207,53,-8,0,-8,0.01
7/26/2010,700,14.6,74,1.2,0,494.5,207,215,110,0,117,0.1
7/26/2010,800,16.6,69,1.4,0,924.6,207,402,247,0,229,0.22
7/26/2010,900,19.1,63,1.4,0,1320.2,207,574,376,0,344,0.34
7/26/2010,1000,21.1,61,1.9,0,1658.3,207,721,489,0,446,0.46
7/26/2010,1100,22.5,55,2.9,0,1945.8,207,846,581,0,530,0.56
7/26/2010,1200,23.7,49,3.8,0,2086.1,207,907,625,0,572,0.63
7/26/2010,1300,24.6,46,4.6,0,2104.5,207,915,630,0,578,0.67
7/26/2010,1400,25.4,45,4.8,0,2005.6,207,872,597,0,549,0.66
7/26/2010,1500,26.4,43,4.7,0,1784.8,207,776,525,0,482,0.63
7/26/2010,1600,25.9,44,4.7,0,1453.6,207,632,417,0,383,0.54
7/26/2010,1700,25.6,44,4.1,0,1051.1,207,457,288,0,266,0.42
7/26/2010,1800,24.2,46,4.2,0,588.8,207,256,146,0,143,0.29
7/26/2010,1900,21.7,50,3.9,0,216.2,207,94,21,0,24,0.17
7/26/2010,2000,18.5,58,3.7,0,9.2,207,4,-47,0,-34,0.05
7/26/2010,2100,16.4,65,3.4,0,0,207,0,-49,0,-37,0.04
7/26/2010,2200,15.4,68,2.8,0,0,207,0,-49,0,-37,0.03
7/26/2010,2300,14.5,70,2.1,0,0,207,0,-48,0,-36,0.02
7/26/2010,2400,13.7,73,1.8,0,0,207,0,-48,0,-36,0.01
7/27/2010,100,13.6,73,2.2,0,0,208,0,-48,0,-41,0.01
7/27/2010,200,13.1,76,1.5,0,0,208,0,-48,0,-40,0.01
7/27/2010,300,12.7,80,1.4,0,0,208,0,-47,0,-40,0
7/27/2010,400,11.9,81,1.2,0,0,208,0,-47,0,-40,0
7/27/2010,500,11.8,82,1.2,0,0,208,0,-47,0,-39,0
7/27/2010,600,11.9,83,1.4,0,110.4,208,48,-10,0,-9,0.01
7/27/2010,700,13.4,78,2,0,478.4,208,208,107,0,113,0.1
7/27/2010,800,16,70,1.2,0,913.1,208,397,244,0,226,0.21
7/27/2010,900,18.2,65,1.7,0,1324.8,208,576,377,0,344,0.34
7/27/2010,1000,20,62,2.5,0,1672.1,208,727,492,0,449,0.45
7/27/2010,1100,21,58,2.5,0,1929.7,208,839,576,0,527,0.53
7/27/2010,1200,22.5,54,2.9,0,2081.5,208,905,625,0,572,0.6
7/27/2010,1300,23.9,48,3.1,0,2106.8,208,916,631,0,579,0.64
7/27/2010,1400,25.6,43,3.8,0,2024,208,880,601,0,551,0.66
7/27/2010,1500,26.6,39,4.4,0,1810.1,208,787,528,0,486,0.65
7/27/2010,1600,26.6,38,4.6,0,1474.3,208,641,418,0,386,0.57
7/27/2010,1700,25.7,40,5.2,0,1069.5,208,465,289,0,270,0.46
7/27/2010,1800,24.4,43,4.6,0,637.1,208,277,154,0,152,0.32
7/27/2010,1900,22.6,48,3.5,0,227.7,208,99,18,0,22,0.17
7/27/2010,2000,20,53,2.5,0,9.2,208,4,-55,0,-40,0.05
7/27/2010,2100,17.9,58,1.7,0,0,208,0,-57,0,-42,0.03
7/27/2010,2200,15.7,64,1.3,0,0,208,0,-56,0,-41,0.01
7/27/2010,2300,14.4,69,1.6,0,0,208,0,-55,0,-41,0.01
7/27/2010,2400,13.6,71,1.3,0,0,208,0,-55,0,-41,0.01
7/28/2010,100,12.7,74,1.8,0,0,209,0,-55,0,-46,0.01
7/28/2010,200,12,77,1.2,0,0,209,0,-55,0,-46,0
7/28/2010,300,11.4,79,1.3,0,0,209,0,-54,0,-46,0
7/28/2010,400,10.8,80,1.3,0,0,209,0,-54,0,-46,0
7/28/2010,500,10.4,81,1.2,0,0,209,0,-54,0,-45,0
7/28/2010,600,10.3,82,1.3,0,124.2,209,54,-13,0,-11,0.01
7/28/2010,700,12.3,78,1.9,0,512.9,209,223,111,0,118,0.1
7/28/2010,800,15.1,70,1.6,0,949.9,209,413,251,0,233,0.21
7/28/2010,900,18.2,61,1.1,0,1363.9,209,593,386,0,350,0.34
7/28/2010,1000,20.5,55,1.6,0,1725,209,750,503,0,454,0.47
7/28/2010,1100,22.8,52,1.9,0,1982.6,209,862,589,0,528,0.57
7/28/2010,1200,24.9,45,1.8,0,2120.6,209,922,632,0,571,0.65
7/28/2010,1300,26.9,40,2,0,2141.3,209,931,638,0,579,0.69
7/28/2010,1400,28,36,2.8,0,2037.8,209,886,601,0,551,0.7
7/28/2010,1500,28.8,31,2.9,0,1819.3,209,791,524,0,484,0.66
7/28/2010,1600,29.4,27,3.3,0,1495,209,650,415,0,387,0.59
7/28/2010,1700,29.3,28,3.9,0,1074.1,209,467,282,0,267,0.5
7/28/2010,1800,27.7,34,3.9,0,644,209,280,150,0,152,0.35
7/28/2010,1900,25,41,3.3,0,227.7,209,99,14,0,20,0.19
7/28/2010,2000,20.8,51,2.4,0,9.2,209,4,-56,0,-40,0.05
7/28/2010,2100,17.9,59,2.2,0,0,209,0,-58,0,-43,0.03
7/28/2010,2200,16,63,2.2,0,0,209,0,-58,0,-42,0.03
7/28/2010,2300,14.8,66,2.3,0,0,209,0,-58,0,-42,0.02
7/28/2010,2400,13.5,74,1.6,0,0,209,0,-56,0,-41,0.01
7/29/2010,100,12,82,1.4,0,0,210,0,-55,0,-44,0
7/29/2010,200,11.2,84,1.2,0,0,210,0,-55,0,-44,0
7/29/2010,300,10.8,84,1.5,0,0,210,0,-55,0,-44,0
7/29/2010,400,10.1,87,0.8,0,0,210,0,-55,0,-44,0
7/29/2010,500,9.6,89,1,0,0,210,0,-54,0,-44,0
7/29/2010,600,9.8,89,1.1,0,119.6,210,52,-14,0,-11,0.01
7/29/2010,700,11.7,86,1.1,0,503.7,210,219,111,0,116,0.09
7/29/2010,800,14.3,75,1.4,0,931.5,210,405,248,0,229,0.2
7/29/2010,900,17.9,62,1.4,0,1375.4,210,598,389,0,351,0.34
7/29/2010,1000,20.5,52,1.3,0,1711.2,210,744,497,0,452,0.47
7/29/2010,1100,23.2,42,1.7,0,2003.3,210,871,589,0,518,0.59
7/29/2010,1200,26.1,35,1.7,0,2139,210,930,631,0,558,0.67
7/29/2010,1300,28,31,2.1,0,2155.1,210,937,634,0,561,0.72
7/29/2010,1400,29.4,29,2.3,0,2053.9,210,893,599,0,545,0.71
7/29/2010,1500,30.6,26,2.5,0,1833.1,210,797,523,0,483,0.67
7/29/2010,1600,31.1,23,3.6,0,1506.5,210,655,413,0,386,0.64
7/29/2010,1700,30.9,20,3.9,0,1099.4,210,478,278,0,268,0.54
7/29/2010,1800,29.6,24,3.2,0,648.6,210,282,142,0,150,0.36
7/29/2010,1900,27,34,2.7,0,225.4,210,98,8,0,16,0.18
7/29/2010,2000,21.5,52,2.8,0,6.9,210,3,-57,0,-41,0.06
7/29/2010,2100,18.2,60,2.6,0,0,210,0,-59,0,-43,0.04
7/29/2010,2200,16.2,67,2.5,0,0,210,0,-57,0,-42,0.03
7/29/2010,2300,14.1,75,1.7,0,0,210,0,-56,0,-42,0.01
7/29/2010,2400,12.9,79,1.9,0,0,210,0,-56,0,-41,0.01
7/30/2010,100,12.5,81,1.5,0,0,211,0,-56,0,-50,0
7/30/2010,200,12.2,82,1.5,0,0,211,0,-56,0,-49,0
7/30/2010,300,11.5,85,1.1,0,0,211,0,-55,0,-49,0
7/30/2010,400,10.8,86,0.9,0,0,211,0,-56,0,-49,0
7/30/2010,500,9.5,87,0.9,0,0,211,0,-56,0,-49,0
7/30/2010,600,9.8,85,0.9,0,133.4,211,58,-12,0,-13,0.01
7/30/2010,700,12.2,82,1.2,0,529,211,230,114,0,118,0.09
7/30/2010,800,14.8,77,1.6,0,956.8,211,416,255,0,233,0.21
7/30/2010,900,17.8,68,1.3,0,1386.9,211,603,394,0,352,0.34
7/30/2010,1000,19.9,59,2,0,1741.1,211,757,509,0,440,0.46
7/30/2010,1100,22.2,52,2,0,2003.3,211,871,595,0,522,0.57
7/30/2010,1200,25,44,2.2,0,2152.8,211,936,642,0,567,0.66
7/30/2010,1300,27.5,36,2.1,0,2157.4,211,938,639,0,565,0.71
7/30/2010,1400,28.6,37,3,0,2037.8,211,886,602,0,549,0.71
7/30/2010,1500,29.3,31,3.5,0,1810.1,211,787,522,0,482,0.68
7/30/2010,1600,30.2,28,3.5,0,1476.6,211,642,411,0,383,0.61
7/30/2010,1700,30.6,29,3.7,0,1046.5,211,455,277,0,261,0.5
7/30/2010,1800,29.6,35,3.5,0,616.4,211,268,146,0,146,0.34
7/30/2010,1900,26.3,43,3.3,0,220.8,211,96,17,0,21,0.19
7/30/2010,2000,21.8,53,3,0,6.9,211,3,-53,0,-39,0.06
7/30/2010,2100,18.4,62,2.6,0,0,211,0,-54,0,-40,0.04
7/30/2010,2200,16.2,70,2.4,0,0,211,0,-53,0,-39,0.02
7/30/2010,2300,14.6,76,1.8,0,0,211,0,-52,0,-39,0.01
7/30/2010,2400,13.6,78,1.6,0,0,211,0,-52,0,-39,0.01
7/31/2010,100,13.4,79,1.7,0,0,212,0,-52,0,-44,0.01
7/31/2010,200,12.7,82,2,0,0,212,0,-52,0,-44,0.01
7/31/2010,300,12.1,84,2.3,0,0,212,0,-52,0,-44,0.01
7/31/2010,400,11.7,85,1.7,0,0,212,0,-52,0,-44,0
7/31/2010,500,11.4,86,1,0,0,212,0,-52,0,-44,0
7/31/2010,600,11.3,85,1.1,0,124.2,212,54,-10,0,-10,0.01
7/31/2010,700,13.2,81,2,0,494.5,212,215,107,0,113,0.1
7/31/2010,800,16.1,74,1.3,0,926.9,212,403,247,0,227,0.21
7/31/2010,900,19,66,1.1,0,1350.1,212,587,385,0,347,0.34
7/31/2010,1000,21.3,60,1.4,0,1708.9,212,743,502,0,452,0.47
7/31/2010,1100,23.5,54,1.8,0,1975.7,212,859,589,0,524,0.58
7/31/2010,1200,25.2,46,1.7,0,2125.2,212,924,635,0,559,0.65
7/31/2010,1300,27.2,42,1.9,0,2148.2,212,934,642,0,566,0.69
7/31/2010,1400,28.1,42,2.9,0,2040.1,212,887,607,0,551,0.69
7/31/2010,1500,28.9,37,3.1,0,1805.5,212,785,527,0,483,0.65
7/31/2010,1600,29.5,32,2.9,0,1474.3,212,641,414,0,383,0.56
7/31/2010,1700,29.8,29,3.2,0,1071.8,212,466,281,0,265,0.47
7/31/2010,1800,28.9,33,3.3,0,598,212,260,140,0,141,0.33
7/31/2010,1900,26,44,3.1,0,218.5,212,95,18,0,22,0.18
7/31/2010,2000,21.2,55,2.2,0,6.9,212,3,-51,0,-37,0.05
7/31/2010,2100,18,64,1.9,0,0,212,0,-52,0,-39,0.03
7/31/2010,2200,16.3,69,1.7,0,0,212,0,-51,0,-38,0.02
7/31/2010,2300,14.8,75,1.7,0,0,212,0,-51,0,-38,0.01
7/31/2010,2400,13.8,79,1.3,0,0,212,0,-50,0,-37,0
